_service/20191224114918_SimulateISim_jeonsoe_LEA_project_tb/LEA_project_tb.vcd
$date
   Tue Dec 24 11:49:24 2019
$end
$version
  P.15xf
$end
$timescale
  1ps
$end
$scope module LEA_project_tb $end
$var wire 1 ! CHK $end
$var wire 1 " CHK_Key $end
$var wire 1 # CHK_Text $end
$var wire 1 $ Din [7] $end
$var wire 1 % Din [6] $end
$var wire 1 & Din [5] $end
$var wire 1 ' Din [4] $end
$var wire 1 ( Din [3] $end
$var wire 1 ) Din [2] $end
$var wire 1 * Din [1] $end
$var wire 1 + Din [0] $end
$var wire 1 , LCD_Address [2] $end
$var wire 1 - LCD_Address [1] $end
$var wire 1 . LCD_Address [0] $end
$var wire 1 / LCD_DATA [7] $end
$var wire 1 0 LCD_DATA [6] $end
$var wire 1 1 LCD_DATA [5] $end
$var wire 1 2 LCD_DATA [4] $end
$var wire 1 3 LCD_DATA [3] $end
$var wire 1 4 LCD_DATA [2] $end
$var wire 1 5 LCD_DATA [1] $end
$var wire 1 6 LCD_DATA [0] $end
$var wire 1 7 LCD_E $end
$var wire 1 8 LCD_RS $end
$var wire 1 9 LCD_RW $end
$var wire 1 : Out_Decrypted [127] $end
$var wire 1 ; Out_Decrypted [126] $end
$var wire 1 < Out_Decrypted [125] $end
$var wire 1 = Out_Decrypted [124] $end
$var wire 1 > Out_Decrypted [123] $end
$var wire 1 ? Out_Decrypted [122] $end
$var wire 1 @ Out_Decrypted [121] $end
$var wire 1 A Out_Decrypted [120] $end
$var wire 1 B Out_Decrypted [119] $end
$var wire 1 C Out_Decrypted [118] $end
$var wire 1 D Out_Decrypted [117] $end
$var wire 1 E Out_Decrypted [116] $end
$var wire 1 F Out_Decrypted [115] $end
$var wire 1 G Out_Decrypted [114] $end
$var wire 1 H Out_Decrypted [113] $end
$var wire 1 I Out_Decrypted [112] $end
$var wire 1 J Out_Decrypted [111] $end
$var wire 1 K Out_Decrypted [110] $end
$var wire 1 L Out_Decrypted [109] $end
$var wire 1 M Out_Decrypted [108] $end
$var wire 1 N Out_Decrypted [107] $end
$var wire 1 O Out_Decrypted [106] $end
$var wire 1 P Out_Decrypted [105] $end
$var wire 1 Q Out_Decrypted [104] $end
$var wire 1 R Out_Decrypted [103] $end
$var wire 1 S Out_Decrypted [102] $end
$var wire 1 T Out_Decrypted [101] $end
$var wire 1 U Out_Decrypted [100] $end
$var wire 1 V Out_Decrypted [99] $end
$var wire 1 W Out_Decrypted [98] $end
$var wire 1 X Out_Decrypted [97] $end
$var wire 1 Y Out_Decrypted [96] $end
$var wire 1 Z Out_Decrypted [95] $end
$var wire 1 [ Out_Decrypted [94] $end
$var wire 1 \ Out_Decrypted [93] $end
$var wire 1 ] Out_Decrypted [92] $end
$var wire 1 ^ Out_Decrypted [91] $end
$var wire 1 _ Out_Decrypted [90] $end
$var wire 1 ` Out_Decrypted [89] $end
$var wire 1 a Out_Decrypted [88] $end
$var wire 1 b Out_Decrypted [87] $end
$var wire 1 c Out_Decrypted [86] $end
$var wire 1 d Out_Decrypted [85] $end
$var wire 1 e Out_Decrypted [84] $end
$var wire 1 f Out_Decrypted [83] $end
$var wire 1 g Out_Decrypted [82] $end
$var wire 1 h Out_Decrypted [81] $end
$var wire 1 i Out_Decrypted [80] $end
$var wire 1 j Out_Decrypted [79] $end
$var wire 1 k Out_Decrypted [78] $end
$var wire 1 l Out_Decrypted [77] $end
$var wire 1 m Out_Decrypted [76] $end
$var wire 1 n Out_Decrypted [75] $end
$var wire 1 o Out_Decrypted [74] $end
$var wire 1 p Out_Decrypted [73] $end
$var wire 1 q Out_Decrypted [72] $end
$var wire 1 r Out_Decrypted [71] $end
$var wire 1 s Out_Decrypted [70] $end
$var wire 1 t Out_Decrypted [69] $end
$var wire 1 u Out_Decrypted [68] $end
$var wire 1 v Out_Decrypted [67] $end
$var wire 1 w Out_Decrypted [66] $end
$var wire 1 x Out_Decrypted [65] $end
$var wire 1 y Out_Decrypted [64] $end
$var wire 1 z Out_Decrypted [63] $end
$var wire 1 { Out_Decrypted [62] $end
$var wire 1 | Out_Decrypted [61] $end
$var wire 1 } Out_Decrypted [60] $end
$var wire 1 ~ Out_Decrypted [59] $end
$var wire 1 !! Out_Decrypted [58] $end
$var wire 1 "! Out_Decrypted [57] $end
$var wire 1 #! Out_Decrypted [56] $end
$var wire 1 $! Out_Decrypted [55] $end
$var wire 1 %! Out_Decrypted [54] $end
$var wire 1 &! Out_Decrypted [53] $end
$var wire 1 '! Out_Decrypted [52] $end
$var wire 1 (! Out_Decrypted [51] $end
$var wire 1 )! Out_Decrypted [50] $end
$var wire 1 *! Out_Decrypted [49] $end
$var wire 1 +! Out_Decrypted [48] $end
$var wire 1 ,! Out_Decrypted [47] $end
$var wire 1 -! Out_Decrypted [46] $end
$var wire 1 .! Out_Decrypted [45] $end
$var wire 1 /! Out_Decrypted [44] $end
$var wire 1 0! Out_Decrypted [43] $end
$var wire 1 1! Out_Decrypted [42] $end
$var wire 1 2! Out_Decrypted [41] $end
$var wire 1 3! Out_Decrypted [40] $end
$var wire 1 4! Out_Decrypted [39] $end
$var wire 1 5! Out_Decrypted [38] $end
$var wire 1 6! Out_Decrypted [37] $end
$var wire 1 7! Out_Decrypted [36] $end
$var wire 1 8! Out_Decrypted [35] $end
$var wire 1 9! Out_Decrypted [34] $end
$var wire 1 :! Out_Decrypted [33] $end
$var wire 1 ;! Out_Decrypted [32] $end
$var wire 1 <! Out_Decrypted [31] $end
$var wire 1 =! Out_Decrypted [30] $end
$var wire 1 >! Out_Decrypted [29] $end
$var wire 1 ?! Out_Decrypted [28] $end
$var wire 1 @! Out_Decrypted [27] $end
$var wire 1 A! Out_Decrypted [26] $end
$var wire 1 B! Out_Decrypted [25] $end
$var wire 1 C! Out_Decrypted [24] $end
$var wire 1 D! Out_Decrypted [23] $end
$var wire 1 E! Out_Decrypted [22] $end
$var wire 1 F! Out_Decrypted [21] $end
$var wire 1 G! Out_Decrypted [20] $end
$var wire 1 H! Out_Decrypted [19] $end
$var wire 1 I! Out_Decrypted [18] $end
$var wire 1 J! Out_Decrypted [17] $end
$var wire 1 K! Out_Decrypted [16] $end
$var wire 1 L! Out_Decrypted [15] $end
$var wire 1 M! Out_Decrypted [14] $end
$var wire 1 N! Out_Decrypted [13] $end
$var wire 1 O! Out_Decrypted [12] $end
$var wire 1 P! Out_Decrypted [11] $end
$var wire 1 Q! Out_Decrypted [10] $end
$var wire 1 R! Out_Decrypted [9] $end
$var wire 1 S! Out_Decrypted [8] $end
$var wire 1 T! Out_Decrypted [7] $end
$var wire 1 U! Out_Decrypted [6] $end
$var wire 1 V! Out_Decrypted [5] $end
$var wire 1 W! Out_Decrypted [4] $end
$var wire 1 X! Out_Decrypted [3] $end
$var wire 1 Y! Out_Decrypted [2] $end
$var wire 1 Z! Out_Decrypted [1] $end
$var wire 1 [! Out_Decrypted [0] $end
$var wire 1 \! Out_Encrypted [127] $end
$var wire 1 ]! Out_Encrypted [126] $end
$var wire 1 ^! Out_Encrypted [125] $end
$var wire 1 _! Out_Encrypted [124] $end
$var wire 1 `! Out_Encrypted [123] $end
$var wire 1 a! Out_Encrypted [122] $end
$var wire 1 b! Out_Encrypted [121] $end
$var wire 1 c! Out_Encrypted [120] $end
$var wire 1 d! Out_Encrypted [119] $end
$var wire 1 e! Out_Encrypted [118] $end
$var wire 1 f! Out_Encrypted [117] $end
$var wire 1 g! Out_Encrypted [116] $end
$var wire 1 h! Out_Encrypted [115] $end
$var wire 1 i! Out_Encrypted [114] $end
$var wire 1 j! Out_Encrypted [113] $end
$var wire 1 k! Out_Encrypted [112] $end
$var wire 1 l! Out_Encrypted [111] $end
$var wire 1 m! Out_Encrypted [110] $end
$var wire 1 n! Out_Encrypted [109] $end
$var wire 1 o! Out_Encrypted [108] $end
$var wire 1 p! Out_Encrypted [107] $end
$var wire 1 q! Out_Encrypted [106] $end
$var wire 1 r! Out_Encrypted [105] $end
$var wire 1 s! Out_Encrypted [104] $end
$var wire 1 t! Out_Encrypted [103] $end
$var wire 1 u! Out_Encrypted [102] $end
$var wire 1 v! Out_Encrypted [101] $end
$var wire 1 w! Out_Encrypted [100] $end
$var wire 1 x! Out_Encrypted [99] $end
$var wire 1 y! Out_Encrypted [98] $end
$var wire 1 z! Out_Encrypted [97] $end
$var wire 1 {! Out_Encrypted [96] $end
$var wire 1 |! Out_Encrypted [95] $end
$var wire 1 }! Out_Encrypted [94] $end
$var wire 1 ~! Out_Encrypted [93] $end
$var wire 1 !" Out_Encrypted [92] $end
$var wire 1 "" Out_Encrypted [91] $end
$var wire 1 #" Out_Encrypted [90] $end
$var wire 1 $" Out_Encrypted [89] $end
$var wire 1 %" Out_Encrypted [88] $end
$var wire 1 &" Out_Encrypted [87] $end
$var wire 1 '" Out_Encrypted [86] $end
$var wire 1 (" Out_Encrypted [85] $end
$var wire 1 )" Out_Encrypted [84] $end
$var wire 1 *" Out_Encrypted [83] $end
$var wire 1 +" Out_Encrypted [82] $end
$var wire 1 ," Out_Encrypted [81] $end
$var wire 1 -" Out_Encrypted [80] $end
$var wire 1 ." Out_Encrypted [79] $end
$var wire 1 /" Out_Encrypted [78] $end
$var wire 1 0" Out_Encrypted [77] $end
$var wire 1 1" Out_Encrypted [76] $end
$var wire 1 2" Out_Encrypted [75] $end
$var wire 1 3" Out_Encrypted [74] $end
$var wire 1 4" Out_Encrypted [73] $end
$var wire 1 5" Out_Encrypted [72] $end
$var wire 1 6" Out_Encrypted [71] $end
$var wire 1 7" Out_Encrypted [70] $end
$var wire 1 8" Out_Encrypted [69] $end
$var wire 1 9" Out_Encrypted [68] $end
$var wire 1 :" Out_Encrypted [67] $end
$var wire 1 ;" Out_Encrypted [66] $end
$var wire 1 <" Out_Encrypted [65] $end
$var wire 1 =" Out_Encrypted [64] $end
$var wire 1 >" Out_Encrypted [63] $end
$var wire 1 ?" Out_Encrypted [62] $end
$var wire 1 @" Out_Encrypted [61] $end
$var wire 1 A" Out_Encrypted [60] $end
$var wire 1 B" Out_Encrypted [59] $end
$var wire 1 C" Out_Encrypted [58] $end
$var wire 1 D" Out_Encrypted [57] $end
$var wire 1 E" Out_Encrypted [56] $end
$var wire 1 F" Out_Encrypted [55] $end
$var wire 1 G" Out_Encrypted [54] $end
$var wire 1 H" Out_Encrypted [53] $end
$var wire 1 I" Out_Encrypted [52] $end
$var wire 1 J" Out_Encrypted [51] $end
$var wire 1 K" Out_Encrypted [50] $end
$var wire 1 L" Out_Encrypted [49] $end
$var wire 1 M" Out_Encrypted [48] $end
$var wire 1 N" Out_Encrypted [47] $end
$var wire 1 O" Out_Encrypted [46] $end
$var wire 1 P" Out_Encrypted [45] $end
$var wire 1 Q" Out_Encrypted [44] $end
$var wire 1 R" Out_Encrypted [43] $end
$var wire 1 S" Out_Encrypted [42] $end
$var wire 1 T" Out_Encrypted [41] $end
$var wire 1 U" Out_Encrypted [40] $end
$var wire 1 V" Out_Encrypted [39] $end
$var wire 1 W" Out_Encrypted [38] $end
$var wire 1 X" Out_Encrypted [37] $end
$var wire 1 Y" Out_Encrypted [36] $end
$var wire 1 Z" Out_Encrypted [35] $end
$var wire 1 [" Out_Encrypted [34] $end
$var wire 1 \" Out_Encrypted [33] $end
$var wire 1 ]" Out_Encrypted [32] $end
$var wire 1 ^" Out_Encrypted [31] $end
$var wire 1 _" Out_Encrypted [30] $end
$var wire 1 `" Out_Encrypted [29] $end
$var wire 1 a" Out_Encrypted [28] $end
$var wire 1 b" Out_Encrypted [27] $end
$var wire 1 c" Out_Encrypted [26] $end
$var wire 1 d" Out_Encrypted [25] $end
$var wire 1 e" Out_Encrypted [24] $end
$var wire 1 f" Out_Encrypted [23] $end
$var wire 1 g" Out_Encrypted [22] $end
$var wire 1 h" Out_Encrypted [21] $end
$var wire 1 i" Out_Encrypted [20] $end
$var wire 1 j" Out_Encrypted [19] $end
$var wire 1 k" Out_Encrypted [18] $end
$var wire 1 l" Out_Encrypted [17] $end
$var wire 1 m" Out_Encrypted [16] $end
$var wire 1 n" Out_Encrypted [15] $end
$var wire 1 o" Out_Encrypted [14] $end
$var wire 1 p" Out_Encrypted [13] $end
$var wire 1 q" Out_Encrypted [12] $end
$var wire 1 r" Out_Encrypted [11] $end
$var wire 1 s" Out_Encrypted [10] $end
$var wire 1 t" Out_Encrypted [9] $end
$var wire 1 u" Out_Encrypted [8] $end
$var wire 1 v" Out_Encrypted [7] $end
$var wire 1 w" Out_Encrypted [6] $end
$var wire 1 x" Out_Encrypted [5] $end
$var wire 1 y" Out_Encrypted [4] $end
$var wire 1 z" Out_Encrypted [3] $end
$var wire 1 {" Out_Encrypted [2] $end
$var wire 1 |" Out_Encrypted [1] $end
$var wire 1 }" Out_Encrypted [0] $end
$var wire 1 ~" Out_PlainText1 [7] $end
$var wire 1 !# Out_PlainText1 [6] $end
$var wire 1 "# Out_PlainText1 [5] $end
$var wire 1 ## Out_PlainText1 [4] $end
$var wire 1 $# Out_PlainText1 [3] $end
$var wire 1 %# Out_PlainText1 [2] $end
$var wire 1 &# Out_PlainText1 [1] $end
$var wire 1 '# Out_PlainText1 [0] $end
$var wire 1 (# Out_PlainText10 [7] $end
$var wire 1 )# Out_PlainText10 [6] $end
$var wire 1 *# Out_PlainText10 [5] $end
$var wire 1 +# Out_PlainText10 [4] $end
$var wire 1 ,# Out_PlainText10 [3] $end
$var wire 1 -# Out_PlainText10 [2] $end
$var wire 1 .# Out_PlainText10 [1] $end
$var wire 1 /# Out_PlainText10 [0] $end
$var wire 1 0# Out_PlainText11 [7] $end
$var wire 1 1# Out_PlainText11 [6] $end
$var wire 1 2# Out_PlainText11 [5] $end
$var wire 1 3# Out_PlainText11 [4] $end
$var wire 1 4# Out_PlainText11 [3] $end
$var wire 1 5# Out_PlainText11 [2] $end
$var wire 1 6# Out_PlainText11 [1] $end
$var wire 1 7# Out_PlainText11 [0] $end
$var wire 1 8# Out_PlainText12 [7] $end
$var wire 1 9# Out_PlainText12 [6] $end
$var wire 1 :# Out_PlainText12 [5] $end
$var wire 1 ;# Out_PlainText12 [4] $end
$var wire 1 <# Out_PlainText12 [3] $end
$var wire 1 =# Out_PlainText12 [2] $end
$var wire 1 ># Out_PlainText12 [1] $end
$var wire 1 ?# Out_PlainText12 [0] $end
$var wire 1 @# Out_PlainText13 [7] $end
$var wire 1 A# Out_PlainText13 [6] $end
$var wire 1 B# Out_PlainText13 [5] $end
$var wire 1 C# Out_PlainText13 [4] $end
$var wire 1 D# Out_PlainText13 [3] $end
$var wire 1 E# Out_PlainText13 [2] $end
$var wire 1 F# Out_PlainText13 [1] $end
$var wire 1 G# Out_PlainText13 [0] $end
$var wire 1 H# Out_PlainText14 [7] $end
$var wire 1 I# Out_PlainText14 [6] $end
$var wire 1 J# Out_PlainText14 [5] $end
$var wire 1 K# Out_PlainText14 [4] $end
$var wire 1 L# Out_PlainText14 [3] $end
$var wire 1 M# Out_PlainText14 [2] $end
$var wire 1 N# Out_PlainText14 [1] $end
$var wire 1 O# Out_PlainText14 [0] $end
$var wire 1 P# Out_PlainText15 [7] $end
$var wire 1 Q# Out_PlainText15 [6] $end
$var wire 1 R# Out_PlainText15 [5] $end
$var wire 1 S# Out_PlainText15 [4] $end
$var wire 1 T# Out_PlainText15 [3] $end
$var wire 1 U# Out_PlainText15 [2] $end
$var wire 1 V# Out_PlainText15 [1] $end
$var wire 1 W# Out_PlainText15 [0] $end
$var wire 1 X# Out_PlainText16 [7] $end
$var wire 1 Y# Out_PlainText16 [6] $end
$var wire 1 Z# Out_PlainText16 [5] $end
$var wire 1 [# Out_PlainText16 [4] $end
$var wire 1 \# Out_PlainText16 [3] $end
$var wire 1 ]# Out_PlainText16 [2] $end
$var wire 1 ^# Out_PlainText16 [1] $end
$var wire 1 _# Out_PlainText16 [0] $end
$var wire 1 `# Out_PlainText2 [7] $end
$var wire 1 a# Out_PlainText2 [6] $end
$var wire 1 b# Out_PlainText2 [5] $end
$var wire 1 c# Out_PlainText2 [4] $end
$var wire 1 d# Out_PlainText2 [3] $end
$var wire 1 e# Out_PlainText2 [2] $end
$var wire 1 f# Out_PlainText2 [1] $end
$var wire 1 g# Out_PlainText2 [0] $end
$var wire 1 h# Out_PlainText3 [7] $end
$var wire 1 i# Out_PlainText3 [6] $end
$var wire 1 j# Out_PlainText3 [5] $end
$var wire 1 k# Out_PlainText3 [4] $end
$var wire 1 l# Out_PlainText3 [3] $end
$var wire 1 m# Out_PlainText3 [2] $end
$var wire 1 n# Out_PlainText3 [1] $end
$var wire 1 o# Out_PlainText3 [0] $end
$var wire 1 p# Out_PlainText4 [7] $end
$var wire 1 q# Out_PlainText4 [6] $end
$var wire 1 r# Out_PlainText4 [5] $end
$var wire 1 s# Out_PlainText4 [4] $end
$var wire 1 t# Out_PlainText4 [3] $end
$var wire 1 u# Out_PlainText4 [2] $end
$var wire 1 v# Out_PlainText4 [1] $end
$var wire 1 w# Out_PlainText4 [0] $end
$var wire 1 x# Out_PlainText5 [7] $end
$var wire 1 y# Out_PlainText5 [6] $end
$var wire 1 z# Out_PlainText5 [5] $end
$var wire 1 {# Out_PlainText5 [4] $end
$var wire 1 |# Out_PlainText5 [3] $end
$var wire 1 }# Out_PlainText5 [2] $end
$var wire 1 ~# Out_PlainText5 [1] $end
$var wire 1 !$ Out_PlainText5 [0] $end
$var wire 1 "$ Out_PlainText6 [7] $end
$var wire 1 #$ Out_PlainText6 [6] $end
$var wire 1 $$ Out_PlainText6 [5] $end
$var wire 1 %$ Out_PlainText6 [4] $end
$var wire 1 &$ Out_PlainText6 [3] $end
$var wire 1 '$ Out_PlainText6 [2] $end
$var wire 1 ($ Out_PlainText6 [1] $end
$var wire 1 )$ Out_PlainText6 [0] $end
$var wire 1 *$ Out_PlainText7 [7] $end
$var wire 1 +$ Out_PlainText7 [6] $end
$var wire 1 ,$ Out_PlainText7 [5] $end
$var wire 1 -$ Out_PlainText7 [4] $end
$var wire 1 .$ Out_PlainText7 [3] $end
$var wire 1 /$ Out_PlainText7 [2] $end
$var wire 1 0$ Out_PlainText7 [1] $end
$var wire 1 1$ Out_PlainText7 [0] $end
$var wire 1 2$ Out_PlainText8 [7] $end
$var wire 1 3$ Out_PlainText8 [6] $end
$var wire 1 4$ Out_PlainText8 [5] $end
$var wire 1 5$ Out_PlainText8 [4] $end
$var wire 1 6$ Out_PlainText8 [3] $end
$var wire 1 7$ Out_PlainText8 [2] $end
$var wire 1 8$ Out_PlainText8 [1] $end
$var wire 1 9$ Out_PlainText8 [0] $end
$var wire 1 :$ Out_PlainText9 [7] $end
$var wire 1 ;$ Out_PlainText9 [6] $end
$var wire 1 <$ Out_PlainText9 [5] $end
$var wire 1 =$ Out_PlainText9 [4] $end
$var wire 1 >$ Out_PlainText9 [3] $end
$var wire 1 ?$ Out_PlainText9 [2] $end
$var wire 1 @$ Out_PlainText9 [1] $end
$var wire 1 A$ Out_PlainText9 [0] $end
$var wire 1 B$ sharp $end
$var wire 1 C$ star $end
$var reg 1 D$ CLK $end
$var reg 12 E$ Keypad [11:0] $end
$var reg 1 F$ RST $end
$upscope $end
$enddefinitions $end
#0
$dumpvars
0!
0"
0#
0+
0*
0)
0(
0'
0D$
b0 E$
1F$
0&
0%
0$
0.
0-
0,
06
05
04
03
02
01
00
0/
07
18
19
0[!
0Z!
0Y!
0X!
0W!
0V!
0U!
0T!
0S!
0R!
0Q!
0P!
0O!
0N!
0M!
0L!
0K!
0J!
0I!
0H!
0G!
0F!
0E!
0D!
0C!
0B!
0A!
0@!
0?!
0>!
0=!
0<!
0;!
0:!
09!
08!
07!
06!
05!
04!
03!
02!
01!
00!
0/!
0.!
0-!
0,!
0+!
0*!
0)!
0(!
0'!
0&!
0%!
0$!
0#!
0"!
0!!
0~
0}
0|
0{
0z
0y
0x
0w
0v
0u
0t
0s
0r
0q
0p
0o
0n
0m
0l
0k
0j
0i
0h
0g
0f
0e
0d
0c
0b
0a
0`
0_
0^
0]
0\
0[
0Z
0Y
0X
0W
0V
0U
0T
0S
0R
0Q
0P
0O
0N
0M
0L
0K
0J
0I
0H
0G
0F
0E
0D
0C
0B
0A
0@
0?
0>
0=
0<
0;
0:
0'#
0&#
0}"
0|"
0{"
0z"
0y"
0x"
0w"
0v"
0u"
0t"
0s"
0r"
0q"
0p"
0o"
0n"
0m"
0l"
0k"
0j"
0i"
0h"
0g"
0f"
0e"
0d"
0c"
0b"
0a"
0`"
0_"
0^"
0]"
0\"
0["
0Z"
0Y"
0X"
0W"
0V"
0U"
0T"
0S"
0R"
0Q"
0P"
0O"
0N"
0M"
0L"
0K"
0J"
0I"
0H"
0G"
0F"
0E"
0D"
0C"
0B"
0A"
0@"
0?"
0>"
0="
0<"
0;"
0:"
09"
08"
07"
06"
05"
04"
03"
02"
01"
00"
0/"
0."
0-"
0,"
0+"
0*"
0)"
0("
0'"
0&"
0%"
0$"
0#"
0""
0!"
0~!
0}!
0|!
0{!
0z!
0y!
0x!
0w!
0v!
0u!
0t!
0s!
0r!
0q!
0p!
0o!
0n!
0m!
0l!
0k!
0j!
0i!
0h!
0g!
0f!
0e!
0d!
0c!
0b!
0a!
0`!
0_!
0^!
0]!
0\!
0%#
0$#
0##
0"#
0!#
0~"
0/#
0.#
0-#
0,#
0+#
0*#
0)#
0(#
07#
06#
05#
04#
03#
02#
01#
00#
0?#
0>#
0=#
0<#
0;#
0:#
09#
08#
0G#
0F#
0E#
0D#
0C#
0B#
0A#
0@#
0O#
0N#
0M#
0L#
0K#
0J#
0I#
0H#
0W#
0V#
0U#
0T#
0S#
0R#
0Q#
0P#
0_#
0^#
0]#
0\#
0[#
0Z#
0Y#
0X#
0g#
0f#
0e#
0d#
0c#
0b#
0a#
0`#
0o#
0n#
0m#
0l#
0k#
0j#
0i#
0h#
0w#
0v#
0u#
0t#
0s#
0r#
0q#
0p#
0!$
0~#
0}#
0|#
0{#
0z#
0y#
0x#
0)$
0($
0'$
0&$
0%$
0$$
0#$
0"$
01$
00$
0/$
0.$
0-$
0,$
0+$
0*$
09$
08$
07$
06$
05$
04$
03$
02$
0A$
0@$
0?$
0>$
0=$
0<$
0;$
0:$
0B$
0C$
$end
#100000
1D$
17
#200000
0D$
0F$
07
#300000
1+
1'
1D$
b10 E$
1&
17
#400000
0D$
07
#500000
1D$
17
#600000
0D$
07
#700000
1D$
17
#800000
0D$
07
#900000
0+
0'
1D$
b0 E$
0&
17
#1000000
1*
1)
1'
0D$
b1000000 E$
1&
07
#1100000
1D$
17
#1200000
0D$
07
#1300000
1D$
17
#1400000
0*
0)
0'
0D$
b0 E$
0&
07
#1500000
1+
1*
1'
1D$
b1000 E$
1&
17
#1600000
0D$
07
#1700000
1D$
17
#1800000
0D$
07
#1900000
0+
0*
0'
1D$
b0 E$
0&
17
#2000000
1+
1(
1'
0D$
b1000000000 E$
1&
07
#2100000
1D$
17
#2200000
0D$
07
#2300000
1D$
17
#2400000
0+
0(
0'
0D$
b0 E$
0&
07
#2500000
1+
1*
1)
1'
1D$
b10000000 E$
1&
17
#2600000
0D$
07
#2700000
1D$
17
#2800000
0D$
07
#2900000
0+
0*
0)
0'
1D$
b0 E$
0&
17
#3000000
1+
1*
1'
0D$
b1000 E$
1&
07
#3100000
1D$
17
#3200000
0D$
07
#3300000
1D$
17
#3400000
0D$
07
#3500000
1D$
17
#3600000
0D$
07
#3700000
1D$
17
#3800000
0D$
07
#3900000
1D$
17
#4000000
0+
0*
0'
0D$
b0 E$
0&
07
#4100000
1*
1'
1D$
b100 E$
1&
17
#4200000
0D$
07
#4300000
1D$
17
#4400000
0D$
07
#4500000
1D$
17
#4600000
0*
0'
0D$
b0 E$
0&
07
#4700000
1D$
17
#4800000
0D$
07
#4900000
1+
1(
1'
1D$
b1000000000 E$
1&
17
#5000000
0D$
07
#5100000
1D$
17
#5200000
0D$
07
#5300000
0+
0(
0'
1D$
b0 E$
0&
17
#5400000
0D$
07
#5500000
1(
1'
1D$
b100000000 E$
1&
17
#5600000
0D$
07
#5700000
1D$
17
#5800000
0D$
07
#5900000
1D$
17
#6000000
0(
0'
0D$
b0 E$
0&
07
#6100000
1*
1)
1'
1D$
b1000000 E$
1&
17
#6200000
0D$
07
#6300000
1D$
17
#6400000
0D$
07
#6500000
0*
0)
0'
1D$
b0 E$
0&
17
#6600000
1)
1'
0D$
b10000 E$
1&
07
#6700000
1D$
17
#6800000
0D$
07
#6900000
1D$
17
#7000000
0D$
07
#7100000
1D$
17
#7200000
0D$
07
#7300000
1D$
17
#7400000
0D$
07
#7500000
0)
0'
1D$
b0 E$
0&
17
#7600000
0D$
07
#7700000
1D$
17
#7800000
0D$
07
#7900000
1D$
17
#8000000
0D$
07
#8100000
1D$
17
#8200000
0D$
07
#8300000
1D$
17
#8400000
0D$
07
#8500000
1D$
17
#8600000
0D$
07
#8700000
1D$
17
#8800000
0D$
07
#8900000
1D$
17
#9000000
0D$
07
#9100000
1D$
17
#9200000
0D$
07
#9300000
1D$
17
#9400000
0D$
07
#9500000
1D$
17
#9600000
0D$
07
#9700000
1D$
17
#9800000
0D$
07
#9900000
1D$
17
