_service/20191224022432_SimulateISim_jeonsoe_keypad_tb/keypad_tb.vcd
$date
   Tue Dec 24 02:24:37 2019
$end
$version
  P.15xf
$end
$timescale
  1ps
$end
$scope module keypad_tb $end
$var wire 1 ! CHK $end
$var wire 1 " LCD_DATA [7] $end
$var wire 1 # LCD_DATA [6] $end
$var wire 1 $ LCD_DATA [5] $end
$var wire 1 % LCD_DATA [4] $end
$var wire 1 & LCD_DATA [3] $end
$var wire 1 ' LCD_DATA [2] $end
$var wire 1 ( LCD_DATA [1] $end
$var wire 1 ) LCD_DATA [0] $end
$var wire 1 * sharp $end
$var wire 1 + star $end
$var reg 1 , CLK $end
$var reg 12 - Keypad [11:0] $end
$var reg 1 . RST $end
$upscope $end
$enddefinitions $end
#0
$dumpvars
0,
b0 -
1.
0!
0)
0(
0'
0&
0%
0$
0#
0"
0*
0+
$end
#100000
1,
#200000
0,
0.
#300000
1,
b10 -
1)
1%
1$
#400000
0,
#500000
1,
1!
#600000
0,
#700000
1,
0!
#800000
0,
#900000
1,
#1000000
0,
#1100000
1,
#1200000
0,
#1300000
1,
#1400000
0,
b0 -
0)
0%
0$
#1500000
1,
#1600000
0,
#1700000
1,
b1000 -
1)
1(
1%
1$
#1800000
0,
#1900000
1,
1!
#2000000
0,
#2100000
1,
0!
#2200000
0,
#2300000
1,
#2400000
0,
#2500000
1,
#2600000
0,
b0 -
0)
0(
0%
0$
#2700000
1,
#2800000
0,
#2900000
1,
#3000000
0,
#3100000
1,
b10000000 -
1)
1(
1'
1%
1$
#3200000
0,
#3300000
1,
1!
#3400000
0,
#3500000
1,
0!
#3600000
0,
#3700000
1,
#3800000
0,
#3900000
1,
#4000000
0,
#4100000
1,
b0 -
0)
0(
0'
0%
0$
#4200000
0,
#4300000
1,
#4400000
0,
#4500000
1,
#4600000
0,
b10000000000 -
#4700000
1,
1+
#4800000
0,
#4900000
1,
0+
#5000000
0,
#5100000
1,
#5200000
0,
#5300000
1,
#5400000
0,
#5500000
1,
#5600000
0,
b0 -
#5700000
1,
#5800000
0,
#5900000
1,
b100000000000 -
1*
#6000000
0,
#6100000
1,
0*
#6200000
0,
#6300000
1,
#6400000
0,
#6500000
1,
#6600000
0,
#6700000
1,
b0 -
