_service/20191224032948_SimulateISim_jeonsoe_LEA_project_tb/LEA_project_tb.vcd
$date
   Tue Dec 24 03:29:54 2019
$end
$version
  P.15xf
$end
$timescale
  1ps
$end
$scope module LEA_project_tb $end
$var wire 1 ! CHK_Key $end
$var wire 1 " CHK_Text $end
$var wire 1 # LCD_Address [2] $end
$var wire 1 $ LCD_Address [1] $end
$var wire 1 % LCD_Address [0] $end
$var wire 1 & LCD_DATA [7] $end
$var wire 1 ' LCD_DATA [6] $end
$var wire 1 ( LCD_DATA [5] $end
$var wire 1 ) LCD_DATA [4] $end
$var wire 1 * LCD_DATA [3] $end
$var wire 1 + LCD_DATA [2] $end
$var wire 1 , LCD_DATA [1] $end
$var wire 1 - LCD_DATA [0] $end
$var wire 1 . LCD_E $end
$var wire 1 / LCD_RS $end
$var wire 1 0 LCD_RW $end
$var wire 1 1 Out_Decrypted [127] $end
$var wire 1 2 Out_Decrypted [126] $end
$var wire 1 3 Out_Decrypted [125] $end
$var wire 1 4 Out_Decrypted [124] $end
$var wire 1 5 Out_Decrypted [123] $end
$var wire 1 6 Out_Decrypted [122] $end
$var wire 1 7 Out_Decrypted [121] $end
$var wire 1 8 Out_Decrypted [120] $end
$var wire 1 9 Out_Decrypted [119] $end
$var wire 1 : Out_Decrypted [118] $end
$var wire 1 ; Out_Decrypted [117] $end
$var wire 1 < Out_Decrypted [116] $end
$var wire 1 = Out_Decrypted [115] $end
$var wire 1 > Out_Decrypted [114] $end
$var wire 1 ? Out_Decrypted [113] $end
$var wire 1 @ Out_Decrypted [112] $end
$var wire 1 A Out_Decrypted [111] $end
$var wire 1 B Out_Decrypted [110] $end
$var wire 1 C Out_Decrypted [109] $end
$var wire 1 D Out_Decrypted [108] $end
$var wire 1 E Out_Decrypted [107] $end
$var wire 1 F Out_Decrypted [106] $end
$var wire 1 G Out_Decrypted [105] $end
$var wire 1 H Out_Decrypted [104] $end
$var wire 1 I Out_Decrypted [103] $end
$var wire 1 J Out_Decrypted [102] $end
$var wire 1 K Out_Decrypted [101] $end
$var wire 1 L Out_Decrypted [100] $end
$var wire 1 M Out_Decrypted [99] $end
$var wire 1 N Out_Decrypted [98] $end
$var wire 1 O Out_Decrypted [97] $end
$var wire 1 P Out_Decrypted [96] $end
$var wire 1 Q Out_Decrypted [95] $end
$var wire 1 R Out_Decrypted [94] $end
$var wire 1 S Out_Decrypted [93] $end
$var wire 1 T Out_Decrypted [92] $end
$var wire 1 U Out_Decrypted [91] $end
$var wire 1 V Out_Decrypted [90] $end
$var wire 1 W Out_Decrypted [89] $end
$var wire 1 X Out_Decrypted [88] $end
$var wire 1 Y Out_Decrypted [87] $end
$var wire 1 Z Out_Decrypted [86] $end
$var wire 1 [ Out_Decrypted [85] $end
$var wire 1 \ Out_Decrypted [84] $end
$var wire 1 ] Out_Decrypted [83] $end
$var wire 1 ^ Out_Decrypted [82] $end
$var wire 1 _ Out_Decrypted [81] $end
$var wire 1 ` Out_Decrypted [80] $end
$var wire 1 a Out_Decrypted [79] $end
$var wire 1 b Out_Decrypted [78] $end
$var wire 1 c Out_Decrypted [77] $end
$var wire 1 d Out_Decrypted [76] $end
$var wire 1 e Out_Decrypted [75] $end
$var wire 1 f Out_Decrypted [74] $end
$var wire 1 g Out_Decrypted [73] $end
$var wire 1 h Out_Decrypted [72] $end
$var wire 1 i Out_Decrypted [71] $end
$var wire 1 j Out_Decrypted [70] $end
$var wire 1 k Out_Decrypted [69] $end
$var wire 1 l Out_Decrypted [68] $end
$var wire 1 m Out_Decrypted [67] $end
$var wire 1 n Out_Decrypted [66] $end
$var wire 1 o Out_Decrypted [65] $end
$var wire 1 p Out_Decrypted [64] $end
$var wire 1 q Out_Decrypted [63] $end
$var wire 1 r Out_Decrypted [62] $end
$var wire 1 s Out_Decrypted [61] $end
$var wire 1 t Out_Decrypted [60] $end
$var wire 1 u Out_Decrypted [59] $end
$var wire 1 v Out_Decrypted [58] $end
$var wire 1 w Out_Decrypted [57] $end
$var wire 1 x Out_Decrypted [56] $end
$var wire 1 y Out_Decrypted [55] $end
$var wire 1 z Out_Decrypted [54] $end
$var wire 1 { Out_Decrypted [53] $end
$var wire 1 | Out_Decrypted [52] $end
$var wire 1 } Out_Decrypted [51] $end
$var wire 1 ~ Out_Decrypted [50] $end
$var wire 1 !! Out_Decrypted [49] $end
$var wire 1 "! Out_Decrypted [48] $end
$var wire 1 #! Out_Decrypted [47] $end
$var wire 1 $! Out_Decrypted [46] $end
$var wire 1 %! Out_Decrypted [45] $end
$var wire 1 &! Out_Decrypted [44] $end
$var wire 1 '! Out_Decrypted [43] $end
$var wire 1 (! Out_Decrypted [42] $end
$var wire 1 )! Out_Decrypted [41] $end
$var wire 1 *! Out_Decrypted [40] $end
$var wire 1 +! Out_Decrypted [39] $end
$var wire 1 ,! Out_Decrypted [38] $end
$var wire 1 -! Out_Decrypted [37] $end
$var wire 1 .! Out_Decrypted [36] $end
$var wire 1 /! Out_Decrypted [35] $end
$var wire 1 0! Out_Decrypted [34] $end
$var wire 1 1! Out_Decrypted [33] $end
$var wire 1 2! Out_Decrypted [32] $end
$var wire 1 3! Out_Decrypted [31] $end
$var wire 1 4! Out_Decrypted [30] $end
$var wire 1 5! Out_Decrypted [29] $end
$var wire 1 6! Out_Decrypted [28] $end
$var wire 1 7! Out_Decrypted [27] $end
$var wire 1 8! Out_Decrypted [26] $end
$var wire 1 9! Out_Decrypted [25] $end
$var wire 1 :! Out_Decrypted [24] $end
$var wire 1 ;! Out_Decrypted [23] $end
$var wire 1 <! Out_Decrypted [22] $end
$var wire 1 =! Out_Decrypted [21] $end
$var wire 1 >! Out_Decrypted [20] $end
$var wire 1 ?! Out_Decrypted [19] $end
$var wire 1 @! Out_Decrypted [18] $end
$var wire 1 A! Out_Decrypted [17] $end
$var wire 1 B! Out_Decrypted [16] $end
$var wire 1 C! Out_Decrypted [15] $end
$var wire 1 D! Out_Decrypted [14] $end
$var wire 1 E! Out_Decrypted [13] $end
$var wire 1 F! Out_Decrypted [12] $end
$var wire 1 G! Out_Decrypted [11] $end
$var wire 1 H! Out_Decrypted [10] $end
$var wire 1 I! Out_Decrypted [9] $end
$var wire 1 J! Out_Decrypted [8] $end
$var wire 1 K! Out_Decrypted [7] $end
$var wire 1 L! Out_Decrypted [6] $end
$var wire 1 M! Out_Decrypted [5] $end
$var wire 1 N! Out_Decrypted [4] $end
$var wire 1 O! Out_Decrypted [3] $end
$var wire 1 P! Out_Decrypted [2] $end
$var wire 1 Q! Out_Decrypted [1] $end
$var wire 1 R! Out_Decrypted [0] $end
$var wire 1 S! Out_Encrypted [127] $end
$var wire 1 T! Out_Encrypted [126] $end
$var wire 1 U! Out_Encrypted [125] $end
$var wire 1 V! Out_Encrypted [124] $end
$var wire 1 W! Out_Encrypted [123] $end
$var wire 1 X! Out_Encrypted [122] $end
$var wire 1 Y! Out_Encrypted [121] $end
$var wire 1 Z! Out_Encrypted [120] $end
$var wire 1 [! Out_Encrypted [119] $end
$var wire 1 \! Out_Encrypted [118] $end
$var wire 1 ]! Out_Encrypted [117] $end
$var wire 1 ^! Out_Encrypted [116] $end
$var wire 1 _! Out_Encrypted [115] $end
$var wire 1 `! Out_Encrypted [114] $end
$var wire 1 a! Out_Encrypted [113] $end
$var wire 1 b! Out_Encrypted [112] $end
$var wire 1 c! Out_Encrypted [111] $end
$var wire 1 d! Out_Encrypted [110] $end
$var wire 1 e! Out_Encrypted [109] $end
$var wire 1 f! Out_Encrypted [108] $end
$var wire 1 g! Out_Encrypted [107] $end
$var wire 1 h! Out_Encrypted [106] $end
$var wire 1 i! Out_Encrypted [105] $end
$var wire 1 j! Out_Encrypted [104] $end
$var wire 1 k! Out_Encrypted [103] $end
$var wire 1 l! Out_Encrypted [102] $end
$var wire 1 m! Out_Encrypted [101] $end
$var wire 1 n! Out_Encrypted [100] $end
$var wire 1 o! Out_Encrypted [99] $end
$var wire 1 p! Out_Encrypted [98] $end
$var wire 1 q! Out_Encrypted [97] $end
$var wire 1 r! Out_Encrypted [96] $end
$var wire 1 s! Out_Encrypted [95] $end
$var wire 1 t! Out_Encrypted [94] $end
$var wire 1 u! Out_Encrypted [93] $end
$var wire 1 v! Out_Encrypted [92] $end
$var wire 1 w! Out_Encrypted [91] $end
$var wire 1 x! Out_Encrypted [90] $end
$var wire 1 y! Out_Encrypted [89] $end
$var wire 1 z! Out_Encrypted [88] $end
$var wire 1 {! Out_Encrypted [87] $end
$var wire 1 |! Out_Encrypted [86] $end
$var wire 1 }! Out_Encrypted [85] $end
$var wire 1 ~! Out_Encrypted [84] $end
$var wire 1 !" Out_Encrypted [83] $end
$var wire 1 "" Out_Encrypted [82] $end
$var wire 1 #" Out_Encrypted [81] $end
$var wire 1 $" Out_Encrypted [80] $end
$var wire 1 %" Out_Encrypted [79] $end
$var wire 1 &" Out_Encrypted [78] $end
$var wire 1 '" Out_Encrypted [77] $end
$var wire 1 (" Out_Encrypted [76] $end
$var wire 1 )" Out_Encrypted [75] $end
$var wire 1 *" Out_Encrypted [74] $end
$var wire 1 +" Out_Encrypted [73] $end
$var wire 1 ," Out_Encrypted [72] $end
$var wire 1 -" Out_Encrypted [71] $end
$var wire 1 ." Out_Encrypted [70] $end
$var wire 1 /" Out_Encrypted [69] $end
$var wire 1 0" Out_Encrypted [68] $end
$var wire 1 1" Out_Encrypted [67] $end
$var wire 1 2" Out_Encrypted [66] $end
$var wire 1 3" Out_Encrypted [65] $end
$var wire 1 4" Out_Encrypted [64] $end
$var wire 1 5" Out_Encrypted [63] $end
$var wire 1 6" Out_Encrypted [62] $end
$var wire 1 7" Out_Encrypted [61] $end
$var wire 1 8" Out_Encrypted [60] $end
$var wire 1 9" Out_Encrypted [59] $end
$var wire 1 :" Out_Encrypted [58] $end
$var wire 1 ;" Out_Encrypted [57] $end
$var wire 1 <" Out_Encrypted [56] $end
$var wire 1 =" Out_Encrypted [55] $end
$var wire 1 >" Out_Encrypted [54] $end
$var wire 1 ?" Out_Encrypted [53] $end
$var wire 1 @" Out_Encrypted [52] $end
$var wire 1 A" Out_Encrypted [51] $end
$var wire 1 B" Out_Encrypted [50] $end
$var wire 1 C" Out_Encrypted [49] $end
$var wire 1 D" Out_Encrypted [48] $end
$var wire 1 E" Out_Encrypted [47] $end
$var wire 1 F" Out_Encrypted [46] $end
$var wire 1 G" Out_Encrypted [45] $end
$var wire 1 H" Out_Encrypted [44] $end
$var wire 1 I" Out_Encrypted [43] $end
$var wire 1 J" Out_Encrypted [42] $end
$var wire 1 K" Out_Encrypted [41] $end
$var wire 1 L" Out_Encrypted [40] $end
$var wire 1 M" Out_Encrypted [39] $end
$var wire 1 N" Out_Encrypted [38] $end
$var wire 1 O" Out_Encrypted [37] $end
$var wire 1 P" Out_Encrypted [36] $end
$var wire 1 Q" Out_Encrypted [35] $end
$var wire 1 R" Out_Encrypted [34] $end
$var wire 1 S" Out_Encrypted [33] $end
$var wire 1 T" Out_Encrypted [32] $end
$var wire 1 U" Out_Encrypted [31] $end
$var wire 1 V" Out_Encrypted [30] $end
$var wire 1 W" Out_Encrypted [29] $end
$var wire 1 X" Out_Encrypted [28] $end
$var wire 1 Y" Out_Encrypted [27] $end
$var wire 1 Z" Out_Encrypted [26] $end
$var wire 1 [" Out_Encrypted [25] $end
$var wire 1 \" Out_Encrypted [24] $end
$var wire 1 ]" Out_Encrypted [23] $end
$var wire 1 ^" Out_Encrypted [22] $end
$var wire 1 _" Out_Encrypted [21] $end
$var wire 1 `" Out_Encrypted [20] $end
$var wire 1 a" Out_Encrypted [19] $end
$var wire 1 b" Out_Encrypted [18] $end
$var wire 1 c" Out_Encrypted [17] $end
$var wire 1 d" Out_Encrypted [16] $end
$var wire 1 e" Out_Encrypted [15] $end
$var wire 1 f" Out_Encrypted [14] $end
$var wire 1 g" Out_Encrypted [13] $end
$var wire 1 h" Out_Encrypted [12] $end
$var wire 1 i" Out_Encrypted [11] $end
$var wire 1 j" Out_Encrypted [10] $end
$var wire 1 k" Out_Encrypted [9] $end
$var wire 1 l" Out_Encrypted [8] $end
$var wire 1 m" Out_Encrypted [7] $end
$var wire 1 n" Out_Encrypted [6] $end
$var wire 1 o" Out_Encrypted [5] $end
$var wire 1 p" Out_Encrypted [4] $end
$var wire 1 q" Out_Encrypted [3] $end
$var wire 1 r" Out_Encrypted [2] $end
$var wire 1 s" Out_Encrypted [1] $end
$var wire 1 t" Out_Encrypted [0] $end
$var wire 1 u" Out_Key [127] $end
$var wire 1 v" Out_Key [126] $end
$var wire 1 w" Out_Key [125] $end
$var wire 1 x" Out_Key [124] $end
$var wire 1 y" Out_Key [123] $end
$var wire 1 z" Out_Key [122] $end
$var wire 1 {" Out_Key [121] $end
$var wire 1 |" Out_Key [120] $end
$var wire 1 }" Out_Key [119] $end
$var wire 1 ~" Out_Key [118] $end
$var wire 1 !# Out_Key [117] $end
$var wire 1 "# Out_Key [116] $end
$var wire 1 ## Out_Key [115] $end
$var wire 1 $# Out_Key [114] $end
$var wire 1 %# Out_Key [113] $end
$var wire 1 &# Out_Key [112] $end
$var wire 1 '# Out_Key [111] $end
$var wire 1 (# Out_Key [110] $end
$var wire 1 )# Out_Key [109] $end
$var wire 1 *# Out_Key [108] $end
$var wire 1 +# Out_Key [107] $end
$var wire 1 ,# Out_Key [106] $end
$var wire 1 -# Out_Key [105] $end
$var wire 1 .# Out_Key [104] $end
$var wire 1 /# Out_Key [103] $end
$var wire 1 0# Out_Key [102] $end
$var wire 1 1# Out_Key [101] $end
$var wire 1 2# Out_Key [100] $end
$var wire 1 3# Out_Key [99] $end
$var wire 1 4# Out_Key [98] $end
$var wire 1 5# Out_Key [97] $end
$var wire 1 6# Out_Key [96] $end
$var wire 1 7# Out_Key [95] $end
$var wire 1 8# Out_Key [94] $end
$var wire 1 9# Out_Key [93] $end
$var wire 1 :# Out_Key [92] $end
$var wire 1 ;# Out_Key [91] $end
$var wire 1 <# Out_Key [90] $end
$var wire 1 =# Out_Key [89] $end
$var wire 1 ># Out_Key [88] $end
$var wire 1 ?# Out_Key [87] $end
$var wire 1 @# Out_Key [86] $end
$var wire 1 A# Out_Key [85] $end
$var wire 1 B# Out_Key [84] $end
$var wire 1 C# Out_Key [83] $end
$var wire 1 D# Out_Key [82] $end
$var wire 1 E# Out_Key [81] $end
$var wire 1 F# Out_Key [80] $end
$var wire 1 G# Out_Key [79] $end
$var wire 1 H# Out_Key [78] $end
$var wire 1 I# Out_Key [77] $end
$var wire 1 J# Out_Key [76] $end
$var wire 1 K# Out_Key [75] $end
$var wire 1 L# Out_Key [74] $end
$var wire 1 M# Out_Key [73] $end
$var wire 1 N# Out_Key [72] $end
$var wire 1 O# Out_Key [71] $end
$var wire 1 P# Out_Key [70] $end
$var wire 1 Q# Out_Key [69] $end
$var wire 1 R# Out_Key [68] $end
$var wire 1 S# Out_Key [67] $end
$var wire 1 T# Out_Key [66] $end
$var wire 1 U# Out_Key [65] $end
$var wire 1 V# Out_Key [64] $end
$var wire 1 W# Out_Key [63] $end
$var wire 1 X# Out_Key [62] $end
$var wire 1 Y# Out_Key [61] $end
$var wire 1 Z# Out_Key [60] $end
$var wire 1 [# Out_Key [59] $end
$var wire 1 \# Out_Key [58] $end
$var wire 1 ]# Out_Key [57] $end
$var wire 1 ^# Out_Key [56] $end
$var wire 1 _# Out_Key [55] $end
$var wire 1 `# Out_Key [54] $end
$var wire 1 a# Out_Key [53] $end
$var wire 1 b# Out_Key [52] $end
$var wire 1 c# Out_Key [51] $end
$var wire 1 d# Out_Key [50] $end
$var wire 1 e# Out_Key [49] $end
$var wire 1 f# Out_Key [48] $end
$var wire 1 g# Out_Key [47] $end
$var wire 1 h# Out_Key [46] $end
$var wire 1 i# Out_Key [45] $end
$var wire 1 j# Out_Key [44] $end
$var wire 1 k# Out_Key [43] $end
$var wire 1 l# Out_Key [42] $end
$var wire 1 m# Out_Key [41] $end
$var wire 1 n# Out_Key [40] $end
$var wire 1 o# Out_Key [39] $end
$var wire 1 p# Out_Key [38] $end
$var wire 1 q# Out_Key [37] $end
$var wire 1 r# Out_Key [36] $end
$var wire 1 s# Out_Key [35] $end
$var wire 1 t# Out_Key [34] $end
$var wire 1 u# Out_Key [33] $end
$var wire 1 v# Out_Key [32] $end
$var wire 1 w# Out_Key [31] $end
$var wire 1 x# Out_Key [30] $end
$var wire 1 y# Out_Key [29] $end
$var wire 1 z# Out_Key [28] $end
$var wire 1 {# Out_Key [27] $end
$var wire 1 |# Out_Key [26] $end
$var wire 1 }# Out_Key [25] $end
$var wire 1 ~# Out_Key [24] $end
$var wire 1 !$ Out_Key [23] $end
$var wire 1 "$ Out_Key [22] $end
$var wire 1 #$ Out_Key [21] $end
$var wire 1 $$ Out_Key [20] $end
$var wire 1 %$ Out_Key [19] $end
$var wire 1 &$ Out_Key [18] $end
$var wire 1 '$ Out_Key [17] $end
$var wire 1 ($ Out_Key [16] $end
$var wire 1 )$ Out_Key [15] $end
$var wire 1 *$ Out_Key [14] $end
$var wire 1 +$ Out_Key [13] $end
$var wire 1 ,$ Out_Key [12] $end
$var wire 1 -$ Out_Key [11] $end
$var wire 1 .$ Out_Key [10] $end
$var wire 1 /$ Out_Key [9] $end
$var wire 1 0$ Out_Key [8] $end
$var wire 1 1$ Out_Key [7] $end
$var wire 1 2$ Out_Key [6] $end
$var wire 1 3$ Out_Key [5] $end
$var wire 1 4$ Out_Key [4] $end
$var wire 1 5$ Out_Key [3] $end
$var wire 1 6$ Out_Key [2] $end
$var wire 1 7$ Out_Key [1] $end
$var wire 1 8$ Out_Key [0] $end
$var wire 1 9$ Out_PlainText [127] $end
$var wire 1 :$ Out_PlainText [126] $end
$var wire 1 ;$ Out_PlainText [125] $end
$var wire 1 <$ Out_PlainText [124] $end
$var wire 1 =$ Out_PlainText [123] $end
$var wire 1 >$ Out_PlainText [122] $end
$var wire 1 ?$ Out_PlainText [121] $end
$var wire 1 @$ Out_PlainText [120] $end
$var wire 1 A$ Out_PlainText [119] $end
$var wire 1 B$ Out_PlainText [118] $end
$var wire 1 C$ Out_PlainText [117] $end
$var wire 1 D$ Out_PlainText [116] $end
$var wire 1 E$ Out_PlainText [115] $end
$var wire 1 F$ Out_PlainText [114] $end
$var wire 1 G$ Out_PlainText [113] $end
$var wire 1 H$ Out_PlainText [112] $end
$var wire 1 I$ Out_PlainText [111] $end
$var wire 1 J$ Out_PlainText [110] $end
$var wire 1 K$ Out_PlainText [109] $end
$var wire 1 L$ Out_PlainText [108] $end
$var wire 1 M$ Out_PlainText [107] $end
$var wire 1 N$ Out_PlainText [106] $end
$var wire 1 O$ Out_PlainText [105] $end
$var wire 1 P$ Out_PlainText [104] $end
$var wire 1 Q$ Out_PlainText [103] $end
$var wire 1 R$ Out_PlainText [102] $end
$var wire 1 S$ Out_PlainText [101] $end
$var wire 1 T$ Out_PlainText [100] $end
$var wire 1 U$ Out_PlainText [99] $end
$var wire 1 V$ Out_PlainText [98] $end
$var wire 1 W$ Out_PlainText [97] $end
$var wire 1 X$ Out_PlainText [96] $end
$var wire 1 Y$ Out_PlainText [95] $end
$var wire 1 Z$ Out_PlainText [94] $end
$var wire 1 [$ Out_PlainText [93] $end
$var wire 1 \$ Out_PlainText [92] $end
$var wire 1 ]$ Out_PlainText [91] $end
$var wire 1 ^$ Out_PlainText [90] $end
$var wire 1 _$ Out_PlainText [89] $end
$var wire 1 `$ Out_PlainText [88] $end
$var wire 1 a$ Out_PlainText [87] $end
$var wire 1 b$ Out_PlainText [86] $end
$var wire 1 c$ Out_PlainText [85] $end
$var wire 1 d$ Out_PlainText [84] $end
$var wire 1 e$ Out_PlainText [83] $end
$var wire 1 f$ Out_PlainText [82] $end
$var wire 1 g$ Out_PlainText [81] $end
$var wire 1 h$ Out_PlainText [80] $end
$var wire 1 i$ Out_PlainText [79] $end
$var wire 1 j$ Out_PlainText [78] $end
$var wire 1 k$ Out_PlainText [77] $end
$var wire 1 l$ Out_PlainText [76] $end
$var wire 1 m$ Out_PlainText [75] $end
$var wire 1 n$ Out_PlainText [74] $end
$var wire 1 o$ Out_PlainText [73] $end
$var wire 1 p$ Out_PlainText [72] $end
$var wire 1 q$ Out_PlainText [71] $end
$var wire 1 r$ Out_PlainText [70] $end
$var wire 1 s$ Out_PlainText [69] $end
$var wire 1 t$ Out_PlainText [68] $end
$var wire 1 u$ Out_PlainText [67] $end
$var wire 1 v$ Out_PlainText [66] $end
$var wire 1 w$ Out_PlainText [65] $end
$var wire 1 x$ Out_PlainText [64] $end
$var wire 1 y$ Out_PlainText [63] $end
$var wire 1 z$ Out_PlainText [62] $end
$var wire 1 {$ Out_PlainText [61] $end
$var wire 1 |$ Out_PlainText [60] $end
$var wire 1 }$ Out_PlainText [59] $end
$var wire 1 ~$ Out_PlainText [58] $end
$var wire 1 !% Out_PlainText [57] $end
$var wire 1 "% Out_PlainText [56] $end
$var wire 1 #% Out_PlainText [55] $end
$var wire 1 $% Out_PlainText [54] $end
$var wire 1 %% Out_PlainText [53] $end
$var wire 1 &% Out_PlainText [52] $end
$var wire 1 '% Out_PlainText [51] $end
$var wire 1 (% Out_PlainText [50] $end
$var wire 1 )% Out_PlainText [49] $end
$var wire 1 *% Out_PlainText [48] $end
$var wire 1 +% Out_PlainText [47] $end
$var wire 1 ,% Out_PlainText [46] $end
$var wire 1 -% Out_PlainText [45] $end
$var wire 1 .% Out_PlainText [44] $end
$var wire 1 /% Out_PlainText [43] $end
$var wire 1 0% Out_PlainText [42] $end
$var wire 1 1% Out_PlainText [41] $end
$var wire 1 2% Out_PlainText [40] $end
$var wire 1 3% Out_PlainText [39] $end
$var wire 1 4% Out_PlainText [38] $end
$var wire 1 5% Out_PlainText [37] $end
$var wire 1 6% Out_PlainText [36] $end
$var wire 1 7% Out_PlainText [35] $end
$var wire 1 8% Out_PlainText [34] $end
$var wire 1 9% Out_PlainText [33] $end
$var wire 1 :% Out_PlainText [32] $end
$var wire 1 ;% Out_PlainText [31] $end
$var wire 1 <% Out_PlainText [30] $end
$var wire 1 =% Out_PlainText [29] $end
$var wire 1 >% Out_PlainText [28] $end
$var wire 1 ?% Out_PlainText [27] $end
$var wire 1 @% Out_PlainText [26] $end
$var wire 1 A% Out_PlainText [25] $end
$var wire 1 B% Out_PlainText [24] $end
$var wire 1 C% Out_PlainText [23] $end
$var wire 1 D% Out_PlainText [22] $end
$var wire 1 E% Out_PlainText [21] $end
$var wire 1 F% Out_PlainText [20] $end
$var wire 1 G% Out_PlainText [19] $end
$var wire 1 H% Out_PlainText [18] $end
$var wire 1 I% Out_PlainText [17] $end
$var wire 1 J% Out_PlainText [16] $end
$var wire 1 K% Out_PlainText [15] $end
$var wire 1 L% Out_PlainText [14] $end
$var wire 1 M% Out_PlainText [13] $end
$var wire 1 N% Out_PlainText [12] $end
$var wire 1 O% Out_PlainText [11] $end
$var wire 1 P% Out_PlainText [10] $end
$var wire 1 Q% Out_PlainText [9] $end
$var wire 1 R% Out_PlainText [8] $end
$var wire 1 S% Out_PlainText [7] $end
$var wire 1 T% Out_PlainText [6] $end
$var wire 1 U% Out_PlainText [5] $end
$var wire 1 V% Out_PlainText [4] $end
$var wire 1 W% Out_PlainText [3] $end
$var wire 1 X% Out_PlainText [2] $end
$var wire 1 Y% Out_PlainText [1] $end
$var wire 1 Z% Out_PlainText [0] $end
$var reg 1 [% CLK $end
$var reg 12 \% Keypad [11:0] $end
$var reg 1 ]% RST $end
$upscope $end
$enddefinitions $end
#0
$dumpvars
x!
x"
0%
0$
0#
0-
0,
0+
0*
0)
0(
0'
0[%
b0 \%
1]%
0&
0.
1/
10
0R!
0Q!
0P!
0O!
0N!
0M!
0L!
0K!
0J!
0I!
0H!
0G!
0F!
0E!
0D!
0C!
0B!
0A!
0@!
0?!
0>!
0=!
0<!
0;!
0:!
09!
08!
07!
06!
05!
04!
03!
02!
01!
00!
0/!
0.!
0-!
0,!
0+!
0*!
0)!
0(!
0'!
0&!
0%!
0$!
0#!
0"!
0!!
0~
0}
0|
0{
0z
0y
0x
0w
0v
0u
0t
0s
0r
0q
0p
0o
0n
0m
0l
0k
0j
0i
0h
0g
0f
0e
0d
0c
0b
0a
0`
0_
0^
0]
0\
0[
0Z
0Y
0X
0W
0V
0U
0T
0S
0R
0Q
0P
0O
0N
0M
0L
0K
0J
0I
0H
0G
0F
0E
0D
0C
0B
0A
0@
0?
0>
0=
0<
0;
0:
09
08
07
06
05
04
03
02
01
0t"
0s"
0r"
0q"
0p"
0o"
0n"
0m"
0l"
0k"
0j"
0i"
0h"
0g"
0f"
0e"
0d"
0c"
0b"
0a"
0`"
0_"
0^"
0]"
0\"
0["
0Z"
0Y"
0X"
0W"
0V"
0U"
0T"
0S"
0R"
0Q"
0P"
0O"
0N"
0M"
0L"
0K"
0J"
0I"
0H"
0G"
0F"
0E"
0D"
0C"
0B"
0A"
0@"
0?"
0>"
0="
0<"
0;"
0:"
09"
08"
07"
06"
05"
04"
03"
02"
01"
00"
0/"
0."
0-"
0,"
0+"
0*"
0)"
0("
0'"
0&"
0%"
0$"
0#"
0""
0!"
0~!
0}!
0|!
0{!
0z!
0y!
0x!
0w!
0v!
0u!
0t!
0s!
0r!
0q!
0p!
0o!
0n!
0m!
0l!
0k!
0j!
0i!
0h!
0g!
0f!
0e!
0d!
0c!
0b!
0a!
0`!
0_!
0^!
0]!
0\!
0[!
0Z!
0Y!
0X!
0W!
0V!
0U!
0T!
0S!
08$
07$
06$
05$
04$
03$
02$
01$
00$
0/$
0.$
0-$
0,$
0+$
0*$
0)$
0($
0'$
0&$
0%$
0$$
0#$
0"$
0!$
0~#
0}#
0|#
0{#
0z#
0y#
0x#
0w#
0v#
0u#
0t#
0s#
0r#
0q#
0p#
0o#
0n#
0m#
0l#
0k#
0j#
0i#
0h#
0g#
0f#
0e#
0d#
0c#
0b#
0a#
0`#
0_#
0^#
0]#
0\#
0[#
0Z#
0Y#
0X#
0W#
0V#
0U#
0T#
0S#
0R#
0Q#
0P#
0O#
0N#
0M#
0L#
0K#
0J#
0I#
0H#
0G#
0F#
0E#
0D#
0C#
0B#
0A#
0@#
0?#
0>#
0=#
0<#
0;#
0:#
09#
08#
07#
06#
05#
04#
03#
02#
01#
00#
0/#
0.#
0-#
0,#
0+#
0*#
0)#
0(#
0'#
0&#
0%#
0$#
0##
0"#
0!#
0~"
0}"
0|"
0{"
0z"
0y"
0x"
0w"
0v"
0u"
0Z%
0Y%
0X%
0W%
0V%
0U%
0T%
0S%
0R%
0Q%
0P%
0O%
0N%
0M%
0L%
0K%
0J%
0I%
0H%
0G%
0F%
0E%
0D%
0C%
0B%
0A%
0@%
0?%
0>%
0=%
0<%
0;%
0:%
09%
08%
07%
06%
05%
04%
03%
02%
01%
00%
0/%
0.%
0-%
0,%
0+%
0*%
0)%
0(%
0'%
0&%
0%%
0$%
0#%
0"%
0!%
0~$
0}$
0|$
0{$
0z$
0y$
0x$
0w$
0v$
0u$
0t$
0s$
0r$
0q$
0p$
0o$
0n$
0m$
0l$
0k$
0j$
0i$
0h$
0g$
0f$
0e$
0d$
0c$
0b$
0a$
0`$
0_$
0^$
0]$
0\$
0[$
0Z$
0Y$
0X$
0W$
0V$
0U$
0T$
0S$
0R$
0Q$
0P$
0O$
0N$
0M$
0L$
0K$
0J$
0I$
0H$
0G$
0F$
0E$
0D$
0C$
0B$
0A$
0@$
0?$
0>$
0=$
0<$
0;$
0:$
09$
$end
#50000
1[%
1.
#100000
0[%
0]%
0.
#150000
1[%
1.
#200000
0[%
b10000000000 \%
0.
#250000
1[%
1.
#300000
0[%
b0 \%
0.
#350000
0!
1"
1%
1[%
1.
#400000
0[%
b1 \%
0.
#450000
1[%
1.
1t"
1r"
1o"
1n"
1m"
1j"
1i"
1g"
1f"
1e"
1c"
1a"
1`"
1^"
1\"
1["
1U"
1S"
1R"
1O"
1M"
1K"
1H"
1E"
1C"
1>"
1:"
19"
17"
16"
15"
13"
12"
11"
1/"
1-"
1,"
1*"
1("
1'"
1!"
1~!
1|!
1y!
1x!
1w!
1t!
1s!
#500000
0[%
b10 \%
0.
#550000
1[%
1.
1Z%
1V%
1U%
#600000
0[%
b100 \%
0.
#650000
1[%
1.
1k"
0g"
1r!
1n!
1m!
#700000
0[%
b1000 \%
0.
#750000
1[%
1.
#800000
0[%
b10000 \%
0.
#850000
1[%
1.
#900000
0[%
b100000 \%
0.
#950000
1[%
1.
#1000000
0[%
b1000000 \%
0.
#1050000
1[%
1.
#1100000
0[%
b10000000 \%
0.
#1150000
1[%
1.
#1200000
0[%
b100000000 \%
0.
#1250000
1[%
1.
#1300000
0[%
b1000000000 \%
0.
#1350000
1[%
1.
#1400000
0[%
b1 \%
0.
#1450000
1[%
1.
#1500000
0[%
b10 \%
0.
#1550000
1[%
1.
#1600000
0[%
b100 \%
0.
#1650000
1[%
1.
#1700000
0[%
b1000 \%
0.
#1750000
1[%
1.
#1800000
0[%
b10000 \%
0.
#1850000
1[%
1.
#1900000
0[%
b100000 \%
0.
#1950000
1[%
1.
#2000000
0[%
b0 \%
0.
#2050000
1[%
1.
#2100000
0[%
b10000000000 \%
0.
#2150000
1[%
1.
#2200000
0[%
b0 \%
0.
#2250000
1!
0"
0%
1$
1[%
1.
#2300000
0[%
b1000000000 \%
0.
#2350000
1[%
1.
#2400000
0[%
b100000000 \%
0.
#2450000
1[%
1.
15$
14$
13$
#2500000
0[%
b10000000 \%
0.
#2550000
1[%
1.
1h"
#2600000
0[%
b1000000 \%
0.
#2650000
1[%
1.
#2700000
0[%
b100000 \%
0.
#2750000
1[%
1.
#2800000
0[%
b10000 \%
0.
#2850000
1[%
1.
#2900000
0[%
b1000 \%
0.
#2950000
1[%
1.
#3000000
0[%
b100 \%
0.
