_service/20191224062037_SimulateISim_jeonsoe_LEA_EncDecEXAMPLE_tb/LEA_EncDecEXAMPLE_tb.vcd
$date
   Tue Dec 24 06:20:41 2019
$end
$version
  P.15xf
$end
$timescale
  1ps
$end
$scope module LEA_EncDecEXAMPLE_tb $end
$var wire 1 ! Decrypted [127] $end
$var wire 1 " Decrypted [126] $end
$var wire 1 # Decrypted [125] $end
$var wire 1 $ Decrypted [124] $end
$var wire 1 % Decrypted [123] $end
$var wire 1 & Decrypted [122] $end
$var wire 1 ' Decrypted [121] $end
$var wire 1 ( Decrypted [120] $end
$var wire 1 ) Decrypted [119] $end
$var wire 1 * Decrypted [118] $end
$var wire 1 + Decrypted [117] $end
$var wire 1 , Decrypted [116] $end
$var wire 1 - Decrypted [115] $end
$var wire 1 . Decrypted [114] $end
$var wire 1 / Decrypted [113] $end
$var wire 1 0 Decrypted [112] $end
$var wire 1 1 Decrypted [111] $end
$var wire 1 2 Decrypted [110] $end
$var wire 1 3 Decrypted [109] $end
$var wire 1 4 Decrypted [108] $end
$var wire 1 5 Decrypted [107] $end
$var wire 1 6 Decrypted [106] $end
$var wire 1 7 Decrypted [105] $end
$var wire 1 8 Decrypted [104] $end
$var wire 1 9 Decrypted [103] $end
$var wire 1 : Decrypted [102] $end
$var wire 1 ; Decrypted [101] $end
$var wire 1 < Decrypted [100] $end
$var wire 1 = Decrypted [99] $end
$var wire 1 > Decrypted [98] $end
$var wire 1 ? Decrypted [97] $end
$var wire 1 @ Decrypted [96] $end
$var wire 1 A Decrypted [95] $end
$var wire 1 B Decrypted [94] $end
$var wire 1 C Decrypted [93] $end
$var wire 1 D Decrypted [92] $end
$var wire 1 E Decrypted [91] $end
$var wire 1 F Decrypted [90] $end
$var wire 1 G Decrypted [89] $end
$var wire 1 H Decrypted [88] $end
$var wire 1 I Decrypted [87] $end
$var wire 1 J Decrypted [86] $end
$var wire 1 K Decrypted [85] $end
$var wire 1 L Decrypted [84] $end
$var wire 1 M Decrypted [83] $end
$var wire 1 N Decrypted [82] $end
$var wire 1 O Decrypted [81] $end
$var wire 1 P Decrypted [80] $end
$var wire 1 Q Decrypted [79] $end
$var wire 1 R Decrypted [78] $end
$var wire 1 S Decrypted [77] $end
$var wire 1 T Decrypted [76] $end
$var wire 1 U Decrypted [75] $end
$var wire 1 V Decrypted [74] $end
$var wire 1 W Decrypted [73] $end
$var wire 1 X Decrypted [72] $end
$var wire 1 Y Decrypted [71] $end
$var wire 1 Z Decrypted [70] $end
$var wire 1 [ Decrypted [69] $end
$var wire 1 \ Decrypted [68] $end
$var wire 1 ] Decrypted [67] $end
$var wire 1 ^ Decrypted [66] $end
$var wire 1 _ Decrypted [65] $end
$var wire 1 ` Decrypted [64] $end
$var wire 1 a Decrypted [63] $end
$var wire 1 b Decrypted [62] $end
$var wire 1 c Decrypted [61] $end
$var wire 1 d Decrypted [60] $end
$var wire 1 e Decrypted [59] $end
$var wire 1 f Decrypted [58] $end
$var wire 1 g Decrypted [57] $end
$var wire 1 h Decrypted [56] $end
$var wire 1 i Decrypted [55] $end
$var wire 1 j Decrypted [54] $end
$var wire 1 k Decrypted [53] $end
$var wire 1 l Decrypted [52] $end
$var wire 1 m Decrypted [51] $end
$var wire 1 n Decrypted [50] $end
$var wire 1 o Decrypted [49] $end
$var wire 1 p Decrypted [48] $end
$var wire 1 q Decrypted [47] $end
$var wire 1 r Decrypted [46] $end
$var wire 1 s Decrypted [45] $end
$var wire 1 t Decrypted [44] $end
$var wire 1 u Decrypted [43] $end
$var wire 1 v Decrypted [42] $end
$var wire 1 w Decrypted [41] $end
$var wire 1 x Decrypted [40] $end
$var wire 1 y Decrypted [39] $end
$var wire 1 z Decrypted [38] $end
$var wire 1 { Decrypted [37] $end
$var wire 1 | Decrypted [36] $end
$var wire 1 } Decrypted [35] $end
$var wire 1 ~ Decrypted [34] $end
$var wire 1 !! Decrypted [33] $end
$var wire 1 "! Decrypted [32] $end
$var wire 1 #! Decrypted [31] $end
$var wire 1 $! Decrypted [30] $end
$var wire 1 %! Decrypted [29] $end
$var wire 1 &! Decrypted [28] $end
$var wire 1 '! Decrypted [27] $end
$var wire 1 (! Decrypted [26] $end
$var wire 1 )! Decrypted [25] $end
$var wire 1 *! Decrypted [24] $end
$var wire 1 +! Decrypted [23] $end
$var wire 1 ,! Decrypted [22] $end
$var wire 1 -! Decrypted [21] $end
$var wire 1 .! Decrypted [20] $end
$var wire 1 /! Decrypted [19] $end
$var wire 1 0! Decrypted [18] $end
$var wire 1 1! Decrypted [17] $end
$var wire 1 2! Decrypted [16] $end
$var wire 1 3! Decrypted [15] $end
$var wire 1 4! Decrypted [14] $end
$var wire 1 5! Decrypted [13] $end
$var wire 1 6! Decrypted [12] $end
$var wire 1 7! Decrypted [11] $end
$var wire 1 8! Decrypted [10] $end
$var wire 1 9! Decrypted [9] $end
$var wire 1 :! Decrypted [8] $end
$var wire 1 ;! Decrypted [7] $end
$var wire 1 <! Decrypted [6] $end
$var wire 1 =! Decrypted [5] $end
$var wire 1 >! Decrypted [4] $end
$var wire 1 ?! Decrypted [3] $end
$var wire 1 @! Decrypted [2] $end
$var wire 1 A! Decrypted [1] $end
$var wire 1 B! Decrypted [0] $end
$var wire 1 C! Encrypted [127] $end
$var wire 1 D! Encrypted [126] $end
$var wire 1 E! Encrypted [125] $end
$var wire 1 F! Encrypted [124] $end
$var wire 1 G! Encrypted [123] $end
$var wire 1 H! Encrypted [122] $end
$var wire 1 I! Encrypted [121] $end
$var wire 1 J! Encrypted [120] $end
$var wire 1 K! Encrypted [119] $end
$var wire 1 L! Encrypted [118] $end
$var wire 1 M! Encrypted [117] $end
$var wire 1 N! Encrypted [116] $end
$var wire 1 O! Encrypted [115] $end
$var wire 1 P! Encrypted [114] $end
$var wire 1 Q! Encrypted [113] $end
$var wire 1 R! Encrypted [112] $end
$var wire 1 S! Encrypted [111] $end
$var wire 1 T! Encrypted [110] $end
$var wire 1 U! Encrypted [109] $end
$var wire 1 V! Encrypted [108] $end
$var wire 1 W! Encrypted [107] $end
$var wire 1 X! Encrypted [106] $end
$var wire 1 Y! Encrypted [105] $end
$var wire 1 Z! Encrypted [104] $end
$var wire 1 [! Encrypted [103] $end
$var wire 1 \! Encrypted [102] $end
$var wire 1 ]! Encrypted [101] $end
$var wire 1 ^! Encrypted [100] $end
$var wire 1 _! Encrypted [99] $end
$var wire 1 `! Encrypted [98] $end
$var wire 1 a! Encrypted [97] $end
$var wire 1 b! Encrypted [96] $end
$var wire 1 c! Encrypted [95] $end
$var wire 1 d! Encrypted [94] $end
$var wire 1 e! Encrypted [93] $end
$var wire 1 f! Encrypted [92] $end
$var wire 1 g! Encrypted [91] $end
$var wire 1 h! Encrypted [90] $end
$var wire 1 i! Encrypted [89] $end
$var wire 1 j! Encrypted [88] $end
$var wire 1 k! Encrypted [87] $end
$var wire 1 l! Encrypted [86] $end
$var wire 1 m! Encrypted [85] $end
$var wire 1 n! Encrypted [84] $end
$var wire 1 o! Encrypted [83] $end
$var wire 1 p! Encrypted [82] $end
$var wire 1 q! Encrypted [81] $end
$var wire 1 r! Encrypted [80] $end
$var wire 1 s! Encrypted [79] $end
$var wire 1 t! Encrypted [78] $end
$var wire 1 u! Encrypted [77] $end
$var wire 1 v! Encrypted [76] $end
$var wire 1 w! Encrypted [75] $end
$var wire 1 x! Encrypted [74] $end
$var wire 1 y! Encrypted [73] $end
$var wire 1 z! Encrypted [72] $end
$var wire 1 {! Encrypted [71] $end
$var wire 1 |! Encrypted [70] $end
$var wire 1 }! Encrypted [69] $end
$var wire 1 ~! Encrypted [68] $end
$var wire 1 !" Encrypted [67] $end
$var wire 1 "" Encrypted [66] $end
$var wire 1 #" Encrypted [65] $end
$var wire 1 $" Encrypted [64] $end
$var wire 1 %" Encrypted [63] $end
$var wire 1 &" Encrypted [62] $end
$var wire 1 '" Encrypted [61] $end
$var wire 1 (" Encrypted [60] $end
$var wire 1 )" Encrypted [59] $end
$var wire 1 *" Encrypted [58] $end
$var wire 1 +" Encrypted [57] $end
$var wire 1 ," Encrypted [56] $end
$var wire 1 -" Encrypted [55] $end
$var wire 1 ." Encrypted [54] $end
$var wire 1 /" Encrypted [53] $end
$var wire 1 0" Encrypted [52] $end
$var wire 1 1" Encrypted [51] $end
$var wire 1 2" Encrypted [50] $end
$var wire 1 3" Encrypted [49] $end
$var wire 1 4" Encrypted [48] $end
$var wire 1 5" Encrypted [47] $end
$var wire 1 6" Encrypted [46] $end
$var wire 1 7" Encrypted [45] $end
$var wire 1 8" Encrypted [44] $end
$var wire 1 9" Encrypted [43] $end
$var wire 1 :" Encrypted [42] $end
$var wire 1 ;" Encrypted [41] $end
$var wire 1 <" Encrypted [40] $end
$var wire 1 =" Encrypted [39] $end
$var wire 1 >" Encrypted [38] $end
$var wire 1 ?" Encrypted [37] $end
$var wire 1 @" Encrypted [36] $end
$var wire 1 A" Encrypted [35] $end
$var wire 1 B" Encrypted [34] $end
$var wire 1 C" Encrypted [33] $end
$var wire 1 D" Encrypted [32] $end
$var wire 1 E" Encrypted [31] $end
$var wire 1 F" Encrypted [30] $end
$var wire 1 G" Encrypted [29] $end
$var wire 1 H" Encrypted [28] $end
$var wire 1 I" Encrypted [27] $end
$var wire 1 J" Encrypted [26] $end
$var wire 1 K" Encrypted [25] $end
$var wire 1 L" Encrypted [24] $end
$var wire 1 M" Encrypted [23] $end
$var wire 1 N" Encrypted [22] $end
$var wire 1 O" Encrypted [21] $end
$var wire 1 P" Encrypted [20] $end
$var wire 1 Q" Encrypted [19] $end
$var wire 1 R" Encrypted [18] $end
$var wire 1 S" Encrypted [17] $end
$var wire 1 T" Encrypted [16] $end
$var wire 1 U" Encrypted [15] $end
$var wire 1 V" Encrypted [14] $end
$var wire 1 W" Encrypted [13] $end
$var wire 1 X" Encrypted [12] $end
$var wire 1 Y" Encrypted [11] $end
$var wire 1 Z" Encrypted [10] $end
$var wire 1 [" Encrypted [9] $end
$var wire 1 \" Encrypted [8] $end
$var wire 1 ]" Encrypted [7] $end
$var wire 1 ^" Encrypted [6] $end
$var wire 1 _" Encrypted [5] $end
$var wire 1 `" Encrypted [4] $end
$var wire 1 a" Encrypted [3] $end
$var wire 1 b" Encrypted [2] $end
$var wire 1 c" Encrypted [1] $end
$var wire 1 d" Encrypted [0] $end
$var reg 192 e" KeyIn [191:0] $end
$var reg 128 f" TextIn [127:0] $end
$upscope $end
$enddefinitions $end
#0
$dumpvars
b10010000000100101011100000100010110110001010111110111110100101111100111100111110010100110000100011100001101010011000001010010011100011110111100000110111101101001001000111010011001000011010010 e"
b1001001101100000001001000110111100111101111000001001111101111100011101000001100000111111010010010001001111110010011110101000000 f"
0B!
0A!
0@!
0?!
0>!
0=!
1<!
0;!
1:!
09!
18!
17!
16!
15!
04!
03!
12!
01!
00!
1/!
1.!
1-!
1,!
1+!
1*!
0)!
0(!
1'!
0&!
0%!
0$!
1#!
0"!
0!!
1~
0}
0|
1{
0z
1y
1x
1w
1v
1u
1t
0s
0r
0q
0p
0o
1n
1m
0l
0k
0j
0i
0h
1g
0f
1e
1d
1c
0b
1a
0`
1_
1^
1]
1\
1[
0Z
1Y
1X
1W
1V
1U
0T
0S
1R
0Q
0P
0O
0N
0M
1L
1K
1J
1I
0H
1G
1F
1E
1D
0C
0B
1A
1@
1?
1>
0=
1<
1;
0:
09
08
17
06
05
14
03
02
01
00
0/
0.
0-
1,
1+
0*
1)
1(
0'
0&
1%
0$
0#
1"
0!
1d"
0c"
1b"
1a"
1`"
1_"
1^"
0]"
1\"
0["
0Z"
0Y"
0X"
1W"
0V"
0U"
0T"
0S"
1R"
0Q"
0P"
1O"
1N"
0M"
1L"
0K"
0J"
0I"
0H"
0G"
0F"
1E"
1D"
0C"
0B"
1A"
0@"
1?"
0>"
0="
0<"
1;"
0:"
09"
08"
07"
16"
05"
04"
13"
02"
01"
00"
1/"
0."
0-"
0,"
1+"
0*"
1)"
1("
1'"
0&"
0%"
1$"
1#"
0""
0!"
0~!
1}!
1|!
1{!
1z!
1y!
0x!
1w!
1v!
0u!
0t!
0s!
0r!
0q!
1p!
1o!
0n!
0m!
0l!
1k!
0j!
1i!
1h!
1g!
0f!
1e!
1d!
0c!
0b!
0a!
0`!
0_!
0^!
0]!
1\!
0[!
1Z!
0Y!
1X!
1W!
1V!
1U!
0T!
0S!
1R!
0Q!
0P!
1O!
1N!
1M!
1L!
1K!
1J!
0I!
0H!
1G!
0F!
0E!
0D!
1C!
$end
#100000
b11011100001111101001101000000000101110011101110011001111010010100010111001000100010010000101111001100000001110100001011001000011001100111111111111000010110110100110111010101111100100011011001 e"
b10110011010010111111100001100011100001100000001011010010011011110010101010110101100100101011000001100100100000100111011110010011 f"
1B!
1A!
1>!
0<!
1;!
19!
07!
14!
02!
11!
0/!
0.!
0-!
0,!
0*!
1(!
0'!
1%!
1$!
0#!
0"!
0!!
0~
0}
1|
1{
0z
1y
0x
1w
0v
0u
1t
0s
0r
1q
1p
0o
1n
0m
1l
1k
0j
1i
0h
1g
0f
1e
0d
1c
0b
0a
1`
1_
1^
1]
0\
1[
1Z
0Y
0X
1W
0V
0U
1T
0S
1R
1Q
0P
1O
0N
0M
0L
0K
0J
0I
0H
1G
1F
0E
0D
0C
0B
1A
1@
1?
0>
0=
0<
1;
1:
09
08
07
06
15
14
13
12
11
10
1/
0.
1-
0,
0+
1*
0)
1(
1'
0&
0%
1$
1#
0"
0!
0d"
1c"
1a"
0`"
0_"
0^"
0]"
1\"
1["
1Z"
1Y"
0X"
0W"
1V"
0U"
1S"
0Q"
0P"
1O"
1N"
0M"
0L"
0K"
0J"
0I"
0H"
0G"
1F"
0E"
0D"
1C"
1B"
1A"
1@"
1?"
1>"
0="
0;"
1:"
19"
08"
07"
16"
05"
04"
12"
11"
10"
0/"
1."
0-"
1,"
0+"
0*"
0("
0'"
1%"
1$"
0#"
1""
0!"
1|!
0{!
1z!
0y!
1x!
1w!
0v!
1u!
0t!
0s!
0p!
0n!
0m!
0l!
0k!
1j!
1i!
1h!
0g!
1f!
0d!
1c!
1b!
1a!
1^!
0\!
1[!
1Y!
0W!
1T!
0R!
1Q!
0O!
0N!
0M!
0L!
0J!
1H!
0G!
1E!
1D!
0C!
#200000
b11100011001111100110011000110110001110010000011000110010001100001011101100011010010111010100011000001110010000110101110111011001111010000111110000100011100011100111111001010100010111010100001 e"
b10101001101011001101000000000110111111010111101111101110100101111111101100101010010011010101000100100011110100001010110100100010 f"
0B!
0>!
1=!
0;!
09!
17!
06!
04!
13!
01!
1.!
1,!
1*!
1)!
0(!
0$!
1"!
0!!
0~
0}
1|
0{
1z
0y
1x
0w
1v
1u
0t
0s
1r
0q
0p
1o
0n
1m
0l
1k
0j
0i
1h
1g
0f
1e
1d
1c
1b
0a
1`
1_
1^
0]
1\
0[
0Z
1Y
0X
1W
1V
1U
0T
1S
1R
1Q
1P
1O
0N
1M
1L
1K
1J
0I
1H
0G
1F
1E
1D
1C
1B
1A
0@
1?
1>
0=
0<
0;
0:
09
08
07
06
05
14
03
12
11
00
0/
1.
1-
0,
1+
0*
1)
1(
0'
0&
1%
0$
1#
0"
0!
0d"
0c"
0b"
1a"
1`"
0_"
1^"
0]"
0\"
0Z"
0Y"
1X"
1W"
0V"
0T"
0S"
0R"
0O"
1M"
1L"
0K"
1J"
1I"
1H"
0G"
0F"
0E"
1D"
1C"
0?"
0>"
1<"
0;"
09"
18"
07"
06"
05"
04"
03"
02"
11"
00"
1/"
1-"
0,"
0+"
1*"
0&"
1%"
1$"
0#"
1""
1~!
0}!
0{!
1z!
1y!
0x!
1v!
0u!
0t!
1s!
1r!
0q!
1p!
0o!
1l!
0k!
1j!
1i!
1h!
0g!
0e!
0d!
1c!
0b!
0^!
1]!
0[!
0Y!
1W!
0V!
0T!
1S!
0Q!
1N!
1L!
1J!
1I!
0H!
0D!
#300000
b10101001010101101010001011000000000110111001101101001101110100011000010110111010111111111001011011100010111100011011100010000000000010010000100110100011101000110010011101110111001110001001 e"
b11101000000110011100110010101010011010111000100101000110110110000111011101010110111101111101011001010110110000000001000110111110 f"
1@!
1?!
1>!
1;!
08!
07!
16!
05!
03!
0.!
0*!
1(!
1&!
0%!
1$!
0"!
1!!
1~
0}
1|
0{
1z
1y
1x
1w
1v
0u
1t
1s
1r
1q
0p
1o
1n
0m
1l
0k
1j
0i
1h
1g
1f
0e
1d
1c
1b
0a
0`
0_
0^
1]
1\
0[
1Z
1Y
0X
1W
1V
0U
0T
0S
1R
0Q
1P
0O
0N
1M
0L
0K
0J
1I
1H
1G
0F
1E
0D
1C
1B
0A
0@
1?
0>
1=
0<
1;
0:
19
08
07
16
15
04
03
12
11
10
0/
0.
1-
1,
0+
0*
0)
0(
0'
0&
1%
0$
1#
1"
1!
0d"
1_"
0^"
1]"
1Z"
0Y"
0X"
0W"
1V"
0U"
0T"
0S"
0R"
0Q"
0P"
1O"
0N"
1M"
1L"
1K"
0J"
1I"
1H"
1G"
1F"
1E"
1D"
1C"
0B"
0@"
1?"
1="
0<"
1;"
08"
17"
16"
05"
13"
00"
1/"
0-"
0,"
0+"
0*"
1("
1'"
1&"
1%"
0#"
0""
0|!
0w!
1u!
0t!
1s!
1r!
1q!
1p!
0o!
1n!
0m!
0l!
1k!
0i!
0h!
1g!
1e!
1d!
0c!
1`!
1_!
1^!
1[!
0X!
0W!
1V!
0U!
0S!
0N!
0J!
1H!
1F!
0E!
1D!
#400000
b110001000010101001101011001011111011000000100100001000100111011100010000110010111010100110011000011011011011110001110010001010101111000011101011001011001001011001100101110001000101111101100000 e"
b1100000101001010010101011010011101001010110000100110101000001101111100000101001010011000100100100011011011001110110011011011001 f"
1B!
0A!
0@!
0=!
1<!
0:!
19!
18!
06!
15!
14!
12!
11!
10!
1-!
0+!
1*!
0(!
1'!
0$!
1"!
0!!
0~
1}
0|
0{
1z
0y
0x
0w
1v
1u
0t
0s
1r
0q
1p
0o
0n
1m
0l
1k
0j
0i
0h
0g
0f
1e
1d
1c
1b
1a
0`
1_
1^
0]
0\
0[
0Z
0Y
1X
0W
1V
0U
1T
1S
0R
0Q
1P
0O
0N
0M
0L
1K
1J
0I
1H
0G
1F
0E
0D
1C
0B
1A
1@
1?
0>
0=
1<
0;
1:
19
08
17
06
15
04
13
02
01
10
0/
1.
0-
0,
1+
0*
1)
0(
0'
0&
0%
0$
1#
1"
0!
1c"
1b"
1a"
0`"
0_"
0^"
0]"
0["
0Z"
0Y"
1X"
1W"
0V"
1T"
1R"
0Q"
1P"
1O"
0N"
0M"
0H"
0G"
0D"
0C"
0B"
1A"
1@"
0?"
1>"
0<"
1;"
1:"
19"
18"
17"
16"
15"
14"
03"
02"
10"
0/"
1."
1+"
1*"
0("
0'"
0&"
0%"
1$"
0#"
1""
1!"
0~!
1}!
0|!
0{!
1z!
1w!
0v!
0u!
0t!
1s!
0r!
1q!
0p!
1o!
1m!
0k!
1j!
1i!
1h!
0g!
0f!
0d!
1c!
1b!
0a!
0`!
0]!
1\!
0Z!
1Y!
1X!
0V!
1U!
1T!
1R!
1Q!
1P!
1M!
0K!
1J!
0H!
1G!
0D!
#500000
b111011001011010110010110011100111001100110010011100101001010000010111010101001100011110001011111100000100010111111100001001110011110110010001110011100000010100001110010110110101000110011111010 e"
b1100000010001100101000011100010001101111000011100101000110000011000011111011101111011000100101111000111101101001110101000000110 f"
0B!
1A!
1@!
0?!
0>!
0<!
0;!
08!
17!
13!
02!
01!
1.!
0,!
1+!
1(!
0'!
0&!
1$!
1#!
1"!
1!!
0~
1}
0|
0{
1z
0y
0x
0w
1v
1u
0t
1s
1r
1q
1p
0o
1n
1m
1l
0k
1j
1i
1h
1g
1f
0e
0d
0c
0b
1`
0_
0^
0]
0\
0[
1Z
1Y
0X
0W
0V
1U
0T
1S
0R
0Q
1P
1O
1N
0M
0L
0K
0J
1I
1H
1G
1F
0E
1D
1C
0B
0A
0@
1?
0>
0=
0<
1;
1:
19
08
07
06
05
14
03
12
01
00
1/
1.
0-
0,
0+
1*
0)
0(
0'
0&
0%
0$
1#
1"
0!
1d"
0c"
0b"
0a"
0`"
0_"
1^"
1\"
1["
1Z"
1Y"
1X"
1W"
0V"
1U"
0T"
1S"
1R"
0Q"
0P"
0O"
0N"
0M"
0L"
0K"
1J"
0I"
0H"
0G"
0F"
1E"
0A"
1@"
0>"
0="
1<"
0;"
0:"
07"
06"
04"
03"
02"
11"
0."
1-"
0,"
0+"
0*"
0)"
1%"
0$"
1#"
1""
1!"
1~!
0}!
1|!
0{!
0z!
0y!
0x!
0w!
1v!
0u!
0t!
0s!
1r!
0q!
0p!
0o!
0n!
1m!
1l!
1i!
1f!
0e!
1d!
0c!
0b!
1a!
1`!
0_!
0^!
0\!
0[!
0X!
1W!
1S!
0R!
0Q!
1N!
0L!
1K!
1H!
0G!
0F!
1D!
1C!
#600000
b111010101100011101001001001000001001100000111100100110111000000111100100001001100101010000110010100101001000000101111101110111001010111001001101100111010111011000110001010010010100000100111011 e"
b10001101100010111010100110000100001000111011010001110101101111100000101011000000110100100011101000011000100001001101101111110101 f"
1B!
0A!
1>!
1=!
1<!
1;!
1:!
16!
05!
0.!
0-!
0*!
0)!
0(!
1'!
1&!
0$!
0#!
0"!
1!!
0~
1}
1|
1{
0z
0y
0x
1w
0v
0u
1t
0s
1r
1q
0p
0o
0n
0m
0l
0k
1j
1i
0h
1g
0f
1e
0d
0c
0b
0a
0`
1_
1^
1]
1\
1[
0Z
1Y
1X
0W
1V
0U
1T
1S
1R
0Q
0P
0O
1N
0M
1L
1K
0J
1I
1H
1G
0F
0E
0D
1C
0B
0A
0@
0?
1>
0=
0<
0;
0:
19
18
07
06
15
04
13
02
11
10
1/
0.
1-
0,
0+
0*
1)
1(
0'
1&
1%
0$
0#
0"
1!
0d"
0c"
1b"
1a"
1`"
0_"
0^"
1]"
0\"
0["
0Y"
1X"
1W"
0U"
0S"
1R"
0Q"
1P"
1N"
1M"
1L"
0K"
0I"
1H"
1G"
0F"
1E"
1D"
1C"
0B"
1A"
0@"
0?"
0>"
1="
0<"
1;"
1:"
13"
12"
11"
00"
1/"
0-"
1,"
1+"
1*"
1("
0'"
0$"
0#"
1""
1!"
1{!
1z!
0y!
0x!
1w!
1u!
0t!
1s!
0r!
1q!
0p!
1o!
1n!
0m!
1l!
0k!
0j!
0i!
1h!
0g!
1f!
1e!
1d!
0c!
1b!
0a!
1^!
1]!
1\!
1[!
1Z!
1V!
0U!
0N!
0M!
0J!
0I!
0H!
1G!
1F!
0D!
0C!
#700000
b110000111001000010110101100011101000011100011110100101001111010011011111010010111100110111000110111100110001110001010101011100010101110100110010010000011001101100101101001110111101011100010110 e"
b11111010010011010011001000001101101000110000101000010000100001110000010000000000111110101111100110111111001011011000000011010101 f"
0=!
0:!
09!
07!
06!
04!
12!
1/!
1-!
0+!
1*!
1)!
1(!
1%!
1#!
1"!
0!!
0~
1}
1|
1{
1z
1y
0x
1w
0v
1u
1t
1s
1r
1q
0p
0o
0n
0m
0l
0k
0j
0i
0h
0g
1f
0e
0d
0c
0b
0a
1`
1_
1^
0]
0\
0[
0Z
1Y
0X
0W
0V
0U
1T
0S
0R
0Q
0P
1O
0N
1M
0L
0K
0J
0I
1H
1G
0F
0E
0D
1C
0B
1A
1@
0?
1>
1=
0<
0;
0:
09
08
17
06
05
14
13
02
01
10
0/
1.
1-
0,
0+
1*
0)
0(
1'
0&
1%
1$
1#
1"
0!
1c"
1b"
0a"
1^"
1]"
0\"
1["
0Z"
1Y"
0X"
0W"
1V"
1S"
0P"
1O"
0N"
0M"
0L"
1K"
0J"
0I"
1H"
0G"
0F"
1E"
0D"
1B"
0A"
1?"
1>"
0="
0<"
0;"
1:"
09"
18"
17"
16"
02"
10"
0/"
1-"
1+"
1*"
1)"
0("
1&"
0%"
0$"
1#"
1""
1!"
1~!
1}!
1|!
0{!
1z!
0w!
0v!
0u!
1t!
0s!
0r!
1q!
1p!
1m!
0l!
1k!
1j!
1i!
0h!
1g!
0f!
0e!
1d!
1c!
0]!
0Z!
0Y!
0W!
0V!
0T!
1R!
1O!
1M!
0K!
1J!
1I!
1H!
1E!
1C!
#800000
b11100101001000011000111111010011101010011100100111100001110100010011110010100001000011010111101010100111100001000100110101010110101110100111100010011100101110001010001011101101001100001111011 e"
b1001100000010000011100110110010100110110001010010011010011011100101111100011010001001100110011110110000111111100101011011011110 f"
0B!
1A!
1?!
19!
18!
16!
14!
03!
02!
11!
1.!
1,!
1+!
0*!
0)!
0(!
0'!
1"!
1!!
1~
0}
0|
1{
1z
0y
0x
1w
1v
0u
0t
1s
0r
0q
0p
1o
0n
1m
1l
0k
0j
0i
1h
1g
1f
1e
1d
0c
1b
0a
0`
1_
1^
1]
0\
1[
1Z
0Y
0X
1W
0V
1U
1T
0S
0R
1Q
0P
0O
1N
0M
1L
0K
0J
0I
1H
1G
0F
1E
1D
0C
0B
0A
0@
1?
0>
0=
1<
1;
0:
19
18
07
06
15
14
13
02
01
00
0/
0.
1-
0,
0+
0*
0)
0(
0'
1&
1%
0$
0#
1"
0!
1d"
0`"
1^"
1]"
0\"
0["
0Z"
0Y"
0X"
0W"
1V"
1U"
1T"
0S"
1R"
1Q"
0P"
1N"
0M"
1J"
1I"
1H"
0G"
1F"
0E"
0C"
1B"
1A"
0@"
1?"
1>"
1="
0<"
0;"
0:"
09"
08"
03"
02"
01"
10"
0,"
0+"
0*"
1("
1'"
1%"
0$"
0#"
1""
0}!
0|!
0{!
1z!
0y!
1x!
1w!
0v!
1u!
0t!
1r!
0q!
0p!
0o!
1n!
0m!
1l!
1k!
1j!
0i!
0h!
0g!
1e!
0d!
0c!
0b!
1a!
1_!
1Y!
1X!
1V!
1T!
0S!
0R!
1Q!
1N!
1L!
1K!
0J!
0I!
0H!
0G!
#900000
b11001010001000001011011100100001000000000101010001101011110011000010110111110011011001010111011100110101111011010011110001111011111000001010010111101111001110101100011010111111001101111011101 e"
b10100011011000010110001111111110010101001100000100010111101001101000111110001111010110000000111001010010111010101010001000110001 f"
1B!
0A!
0@!
0?!
1=!
0<!
0;!
08!
06!
15!
04!
13!
00!
0.!
1)!
0%!
1$!
0#!
0"!
1!!
1~
1}
0{
0z
0y
0x
0w
0v
1u
1t
0s
1r
0q
1p
1o
1n
1m
0l
0k
0j
1i
1h
1g
1f
1e
0d
0c
0b
1a
0`
1_
1^
0]
0\
1[
0Z
1Y
1X
1W
1V
0U
1T
0S
0R
0Q
1P
0O
0N
0M
0L
0K
1J
1I
0H
0G
1F
0E
1D
0C
1B
1A
0@
1?
1>
1=
1<
1;
1:
19
18
17
06
05
04
13
12
01
10
0/
0.
0-
0,
1+
1*
0)
1(
1'
0&
0%
0$
1#
0"
1!
1d"
1c"
0b"
0a"
0`"
1_"
1^"
0]"
1["
1Z"
1Y"
1X"
1W"
1V"
1U"
0T"
1S"
0R"
0Q"
1P"
0O"
1N"
1M"
1L"
0K"
1J"
0I"
0H"
1G"
0F"
0E"
0D"
1C"
0B"
1A"
1@"
0?"
1>"
0="
1<"
1;"
09"
18"
07"
06"
15"
14"
03"
12"
11"
10"
1/"
0."
1-"
0,"
1+"
0)"
0("
0'"
0&"
1%"
1$"
0#"
1""
0!"
1~!
1|!
0{!
1z!
1y!
0x!
0v!
0u!
0t!
1s!
1q!
0p!
1o!
0n!
1m!
1l!
0k!
1i!
0h!
0g!
1f!
0e!
1d!
1c!
1b!
0a!
0`!
0_!
1]!
0\!
0[!
0X!
0V!
1U!
0T!
1S!
0P!
0N!
1I!
0E!
1D!
0C!
#1000000
b100111010110110111111110011001101000100110000000010101111011100100100000001001000010000111001100011001001001100010000100101110100000100010101110110101100001011111001110000011101110011011101 e"
b10000111001101100000001011011001110010101001011000110001011001111000101010011011110110001100000100101011111101100001111110100001 f"
0>!
1;!
1:!
18!
17!
16!
05!
03!
10!
0/!
1.!
1*!
1'!
0&!
1%!
0$!
1"!
0!!
0~
0}
0|
1z
1y
0x
0w
0v
1u
1t
0s
1r
1q
1p
1o
0n
1m
1l
0k
0j
1i
0h
1g
0f
1e
0d
0c
0b
0a
1`
1_
1^
0]
0\
1[
1Z
0Y
1X
0W
0V
0U
1T
1S
0R
0Q
0P
1O
1N
0M
1L
0K
0J
1I
0H
1G
0F
1E
0D
0C
1B
0A
1@
0?
0>
1=
1<
0;
1:
19
08
17
06
05
04
03
02
01
00
1/
1.
0-
1,
1+
0*
0)
1(
1'
1&
0%
0$
0#
0"
0!
1d"
1c"
0b"
1a"
1`"
1_"
0^"
0]"
1\"
1S"
0R"
1Q"
0P"
0O"
0N"
1M"
1L"
1K"
0J"
1I"
0G"
1E"
1D"
0C"
1B"
0@"
1?"
1>"
1="
1<"
1;"
0:"
19"
18"
07"
16"
15"
04"
03"
12"
01"
00"
1/"
0."
1-"
1,"
0("
1'"
0$"
1""
1~!
0}!
0|!
0{!
1z!
1y!
1x!
1v!
1u!
0t!
0s!
0r!
0q!
0p!
1o!
0n!
0m!
0l!
0k!
0j!
1i!
1h!
0f!
1e!
0d!
0^!
1[!
1Z!
1X!
1W!
1V!
0U!
0S!
1P!
0O!
1N!
1J!
1G!
0F!
1E!
0D!
