_service/20191222145648_SimulateISim_c0np4nn4_LEA_16Counter_tb/LEA_16Counter_tb.vcd
$date
   Sun Dec 22 14:56:53 2019
$end
$version
  P.15xf
$end
$timescale
  1ps
$end
$scope module LEA_16Counter_tb $end
$var wire 1 ! count [15] $end
$var wire 1 " count [14] $end
$var wire 1 # count [13] $end
$var wire 1 $ count [12] $end
$var wire 1 % count [11] $end
$var wire 1 & count [10] $end
$var wire 1 ' count [9] $end
$var wire 1 ( count [8] $end
$var wire 1 ) count [7] $end
$var wire 1 * count [6] $end
$var wire 1 + count [5] $end
$var wire 1 , count [4] $end
$var wire 1 - count [3] $end
$var wire 1 . count [2] $end
$var wire 1 / count [1] $end
$var wire 1 0 count [0] $end
$var reg 1 1 clk $end
$var reg 1 2 rst $end
$upscope $end
$enddefinitions $end
#0
$dumpvars
01
12
00
0/
0.
0-
0,
0+
0*
0)
0(
0'
0&
0%
0$
0#
0"
0!
$end
#100000
11
10
#200000
01
#300000
11
02
00
1/
#400000
01
#500000
11
10
#600000
01
#700000
11
00
0/
1.
#800000
01
#900000
11
10
#1000000
01
#1100000
11
00
1/
#1200000
01
#1300000
11
10
#1400000
01
#1500000
11
00
0/
0.
1-
#1600000
01
#1700000
11
10
#1800000
01
#1900000
11
00
1/
#2000000
01
#2100000
11
10
#2200000
01
#2300000
11
00
0/
1.
#2400000
01
#2500000
11
10
#2600000
01
#2700000
11
00
1/
#2800000
01
#2900000
11
10
#3000000
01
#3100000
11
00
0/
0.
0-
1,
#3200000
01
#3300000
11
10
#3400000
01
#3500000
11
00
1/
#3600000
01
#3700000
11
10
#3800000
01
#3900000
11
00
0/
1.
#4000000
01
#4100000
11
10
#4200000
01
#4300000
11
00
1/
#4400000
01
#4500000
11
10
#4600000
01
#4700000
11
00
0/
0.
1-
#4800000
01
#4900000
11
10
#5000000
01
#5100000
11
00
1/
#5200000
01
#5300000
11
10
#5400000
01
#5500000
11
00
0/
1.
#5600000
01
#5700000
11
10
#5800000
01
#5900000
11
00
1/
#6000000
01
#6100000
11
10
#6200000
01
#6300000
11
00
0/
0.
0-
0,
1+
#6400000
01
#6500000
11
10
#6600000
01
#6700000
11
00
1/
#6800000
01
#6900000
11
10
#7000000
01
#7100000
11
00
0/
1.
#7200000
01
#7300000
11
10
#7400000
01
#7500000
11
00
1/
#7600000
01
#7700000
11
10
#7800000
01
#7900000
11
00
0/
0.
1-
#8000000
01
#8100000
11
10
#8200000
01
#8300000
11
00
1/
#8400000
01
#8500000
11
10
#8600000
01
#8700000
11
00
0/
1.
#8800000
01
#8900000
11
10
#9000000
01
#9100000
11
00
1/
#9200000
01
#9300000
11
10
#9400000
01
#9500000
11
00
0/
0.
0-
1,
#9600000
01
#9700000
11
10
#9800000
01
#9900000
11
00
1/
