_service/20191223001549_SimulateISim_c0np4nn4_LEA_BlockSubtractor_tb/LEA_BlockSubtractor_tb.vcd
$date
   Mon Dec 23 00:15:52 2019
$end
$version
  P.15xf
$end
$timescale
  1ps
$end
$scope module LEA_BlockSubtractor_tb $end
$var wire 1 ! Result [31] $end
$var wire 1 " Result [30] $end
$var wire 1 # Result [29] $end
$var wire 1 $ Result [28] $end
$var wire 1 % Result [27] $end
$var wire 1 & Result [26] $end
$var wire 1 ' Result [25] $end
$var wire 1 ( Result [24] $end
$var wire 1 ) Result [23] $end
$var wire 1 * Result [22] $end
$var wire 1 + Result [21] $end
$var wire 1 , Result [20] $end
$var wire 1 - Result [19] $end
$var wire 1 . Result [18] $end
$var wire 1 / Result [17] $end
$var wire 1 0 Result [16] $end
$var wire 1 1 Result [15] $end
$var wire 1 2 Result [14] $end
$var wire 1 3 Result [13] $end
$var wire 1 4 Result [12] $end
$var wire 1 5 Result [11] $end
$var wire 1 6 Result [10] $end
$var wire 1 7 Result [9] $end
$var wire 1 8 Result [8] $end
$var wire 1 9 Result [7] $end
$var wire 1 : Result [6] $end
$var wire 1 ; Result [5] $end
$var wire 1 < Result [4] $end
$var wire 1 = Result [3] $end
$var wire 1 > Result [2] $end
$var wire 1 ? Result [1] $end
$var wire 1 @ Result [0] $end
$var reg 32 A A [31:0] $end
$var reg 32 B B [31:0] $end
$upscope $end
$enddefinitions $end
#0
$dumpvars
b10100011111100110111101011111000 A
b1011011111101110101110111110011 B
1@
0?
1>
0=
0<
0;
0:
09
18
07
16
15
14
03
02
01
00
0/
1.
1-
1,
1+
1*
1)
1(
1'
1&
0%
0$
0#
1"
0!
$end
#100000
b1101010101001110011100100011010 A
b111111110011000000001001101 B
0?
1>
1=
0<
0;
1:
19
08
07
06
15
14
13
02
11
10
0/
1.
1-
0,
0*
0(
0&
0%
0$
1#
1"
#200000
b100110110111111100001101011110 A
b111110001000111110010010111010 B
0@
0?
1>
0=
0<
1;
0:
19
17
16
15
14
03
12
11
10
1/
0.
1-
1,
1+
0*
1)
0(
0'
0&
1%
0$
1#
1"
#300000
b1101010110110110010101111011010 A
b11111111000100110010100001010 B
0>
1<
0;
1:
19
08
17
05
04
03
12
11
00
0/
0.
1-
1*
1)
0(
1'
0&
1%
0$
0#
1"
#400000
b11111101101101111111110100100000 A
b1001011111000010100001101111011 B
1@
0?
1>
0=
0<
1;
0:
19
18
07
06
15
14
13
02
11
00
1/
1.
0-
0+
1*
1(
0'
0&
0%
1$
1#
0"
1!
#500000
b10110000110100111110011100010001 A
b100100101000101100011101000001 B
0@
0?
0>
0=
1<
0;
1:
17
16
15
14
03
01
10
0/
0.
1+
0*
0)
0(
0'
1&
1%
0$
0#
0"
1!
#600000
b11110010001011000111110111011111 A
b10010011011010011011000011010011 B
0?
1>
1=
0<
0:
09
18
07
16
15
04
03
12
11
00
1/
0.
0-
0,
0+
1*
1)
0(
1'
1&
1%
1$
0#
1"
#700000
b10101101011100110000100010100111 A
b1011111010000100001011100111011 B
1=
0<
1;
1:
09
18
07
06
05
14
13
12
11
00
0/
0.
0-
1,
1+
0*
0)
0(
1'
1&
1%
0$
1"
0!
#800000
b11011010101110000100001001111000 A
b10011101101100001001101111011001 B
1@
1?
1>
1=
1<
0;
0:
19
08
17
16
05
04
02
11
10
1/
1.
0-
0,
0+
0*
0)
1(
0'
1&
1$
1#
0"
1!
#900000
b1011001110111110011000110110 A
b11100010101100001111111100000011 B
1?
0>
0=
1<
1;
0:
09
18
16
05
13
12
11
00
1/
0.
1-
1)
0(
0'
0&
1%
0$
1#
0"
0!
#1000000
b11011011000010110001110010011010 A
b10100001001010100001001011100100 B
0@
1?
1>
0=
1;
0:
19
18
07
06
15
04
03
02
01
10
0/
0-
0,
1+
1*
1)
1(
0'
1$
0"
1!
#1100000
b11010110011110111100000001110111 A
b11110000001001011001100011110101 B
0@
0>
0=
0<
0;
0:
19
17
16
05
04
13
02
01
00
1/
1.
0-
1,
0+
1*
0)
0(
1'
1&
0%
0$
1"
#1200000
b111010010000001110011101010011 A
b10001011100000000001100010000 B
1@
0>
0=
0<
0;
1:
09
08
07
16
05
04
13
12
11
00
0/
0.
0-
1,
0+
1*
1)
0(
0'
0&
1%
1#
0"
0!
#1300000
b11110010100101000111010010011110 A
b1111101001000101010000101111001 B
1@
0?
1>
0=
1;
0:
09
18
17
06
14
03
11
10
0/
0.
1,
1+
1*
0)
1(
1&
0%
1$
1#
1"
0!
#1400000
b101010010100111000001110111 A
b10001101001110001110010010001001 B
0@
1?
1=
0<
1;
1:
19
18
17
06
15
04
02
0/
0.
0-
1,
0+
0*
0)
0(
0'
0&
1%
1$
1#
1"
#1500000
b1011011000000000100010000111110 A
b111001110011101110100010110111 B
1@
1?
1>
0=
0<
0;
0:
19
06
15
14
03
12
01
0/
0.
0-
1,
1+
0*
0)
1(
0'
0&
0%
0$
1#
0"
#1600000
b1110010001111111001101000101100 A
b11001110100110000001001001110010 B
0@
1?
0>
1=
1<
1;
0:
19
18
17
16
05
04
03
02
11
10
1/
1.
0-
0,
1+
0*
1)
1(
1'
0&
0%
0$
1#
0"
1!
#1700000
b1110000001101111010001100111 A
b11001110100111011110010100001000 B
1@
1?
1>
1=
1<
0;
1:
09
18
17
16
15
04
03
02
01
10
0/
0.
1-
0,
1+
1*
0)
1&
1%
1$
1#
0"
0!
#1800000
b10010001000100110101010001101011 A
b10010100011000001100100011001010 B
0?
0>
0=
0<
1;
0:
19
18
17
06
15
03
02
11
00
1/
0.
0-
1,
1+
0*
1)
0(
0'
1&
1%
1$
1#
1"
1!
#1900000
b11100010110000001110101100010110 A
b10111011010001011010101110011 B
1@
1?
0>
0=
0<
1;
0:
19
18
07
16
05
14
13
02
01
00
0/
0.
1-
1,
0+
1*
0)
1(
1'
0&
0$
0#
1"
1!
#2000000
b1011010011011100100110110100010 A
b11000000011100110010110010000 B
0@
1?
0>
0=
1<
0;
0:
09
08
07
06
15
04
13
12
11
10
1/
1.
1-
1,
0+
1*
0)
0(
1'
0&
0%
0$
0#
1"
0!
#2100000
b10100001001000111101111000101010 A
b1000100111101001110101111010101 B
1@
0?
1>
0=
1:
09
08
17
06
05
14
11
00
1/
1.
1-
0,
1+
0*
0)
0(
0'
1&
1%
1$
0#
1"
0!
#2200000
b10000011100100101000010111010001 A
b10101001100011100100101011111 B
0@
1?
0>
0=
1<
1;
1:
09
08
07
16
15
14
13
02
00
0/
0.
0-
0,
1+
1*
0)
0(
1'
0$
1#
1"
0!
#2300000
b10001010110100100110110010100111 A
b10001001011110110100111010001010 B
1@
0?
1>
1=
1<
0;
0:
09
08
17
16
15
14
03
02
01
10
1/
1.
0-
1,
0+
1*
0)
1(
0'
0&
0%
0$
0#
0"
1!
#2400000
b11101001111010110010111010111 A
b1011010011001110010000011111000 B
1?
1<
0;
1:
19
08
07
16
05
04
03
12
00
1/
1.
0-
1,
0+
1*
1)
0(
1'
0&
0$
1"
0!
#2500000
b11010100010001000001011001010011 A
b111000000110010100010010101000 B
0>
0<
1;
0:
19
18
07
06
14
03
12
11
00
1/
0.
1-
0,
1+
0*
0)
0(
0'
1&
1%
1$
0#
0"
1!
#2600000
b10010001001001110111010111111110 A
b11110111110011010100000000110011 B
1@
1?
0>
1=
0<
0;
1:
19
18
07
16
13
02
01
00
1/
0.
1-
1,
0+
1*
0)
1(
0'
0&
1%
1$
0#
0"
#2700000
b10101001000000011010001000110010 A
b1100000001101001101101001100110 B
0@
0?
1>
1=
0<
1:
19
18
17
16
05
04
03
12
11
00
0/
1.
1-
0,
0+
1*
1)
0(
0'
0&
1%
0$
0#
1"
0!
#2800000
b11110001110000111111000110100000 A
b1001111010100101101110010110011 B
1@
0?
1>
1=
0<
1;
1:
19
08
07
16
14
02
01
10
0/
0.
0-
1,
1+
1*
0)
0(
1'
0&
0%
0$
1#
0"
1!
#2900000
b11101011101010100010000000111011 A
b1001101000001001001000011000 B
1@
1?
0>
0=
0<
1;
0:
09
08
17
16
15
04
02
11
10
0/
1-
0,
0+
0*
0)
0(
1'
0&
0%
0$
1#
1"
#3000000
b1101001010100000110110111111111 A
b10111000001011000110101110101001 B
0@
1>
1<
0;
1:
09
08
06
05
04
03
02
01
00
0/
1.
0-
0,
1+
0*
0)
1(
0'
1$
1#
0"
#3100000
b11001111111111100001010101011010 A
b10101001001111100110111100101011 B
1@
1?
1>
1=
0<
1;
0:
09
08
17
16
05
04
13
02
11
10
1/
1.
1-
1,
1+
0*
1)
0(
1'
1&
0$
1#
#3200000
b1001010011000100101110000110001 A
b11010101010010000111001100001011 B
0@
1?
0=
1;
0:
09
18
07
06
15
04
13
12
0/
0.
1-
1,
0+
0*
0)
1(
0'
1&
0%
1$
1#
1"
0!
#3300000
b110011011100101010110010000001 A
b10111110100100011110100001111101 B
0?
1>
0<
0;
0:
09
08
07
16
05
04
03
12
11
00
0-
0,
1+
1*
1)
0(
0'
1&
0%
1$
1#
1"
0!
#3400000
b1110011011001111110000001010101 A
b111110110000111111010101001101 B
0>
1=
0<
0;
0:
09
18
17
06
15
04
13
12
11
10
1/
0.
0,
1+
0*
0"
#3500000
b1011000010100110110110111001010 A
b1111001100010111001011011011110 B
0@
0?
1>
1=
0<
1;
1:
19
08
17
16
05
14
03
12
11
1.
0-
0,
0+
1*
0(
1'
1&
1%
1$
0#
1"
#3600000
b10001110111101110011001110001 A
b10110110010110110100110001110011 B
0@
1?
1>
1=
1<
1;
1:
19
18
07
06
15
14
03
02
11
10
0.
0-
0,
0+
0*
1)
1(
1'
0&
1%
1"
#3700000
b10000011000100011111000100110111 A
b11000110100100100001001000110110 B
1@
0?
0>
0=
0<
0;
0:
09
18
17
16
15
14
03
12
10
1/
1.
1-
1,
1+
1*
0)
0(
0'
1&
1$
1#
0"
1!
#3800000
b11010000001101111110101000100101 A
b1001111101110001111000010000000 B
0?
1>
0<
1;
19
18
07
06
15
14
13
12
11
00
1/
1.
1-
1+
1*
0)
0(
0'
0&
0%
0$
0#
0"
1!
#3900000
b11110101011000100011010010101011 A
b10101001011111001001001111100011 B
0@
0?
0>
1=
0;
1:
19
08
07
06
05
04
13
02
11
10
0/
1.
0-
0,
1*
1)
1(
1'
0&
1%
0#
1"
#4000000
b11111001111100110001010000010000 A
b11001100010110101100101001000010 B
0@
1?
1>
1=
0<
0;
1:
19
18
15
04
03
12
01
00
0/
0.
1-
1,
0+
0*
1)
1(
0'
1&
1%
0$
1#
0"
#4100000
b11110010000001101000100000000010 A
b1101011001000111111011000001 B
1@
0?
0>
0=
0<
0;
1:
09
06
15
04
03
02
01
00
1/
0.
0-
0,
1+
0*
1)
0(
0'
0%
1"
#4200000
b100100101010000010111110100 A
b1010000111010010101000001010100 B
0@
0?
0>
0=
0<
1;
0:
19
18
07
16
05
14
13
11
10
1/
0.
1-
0,
1)
1(
1'
0&
0%
1$
1#
0"
0!
#4300000
b10000000010010100001010000101110 A
b101011111001101111001001111101 B
1@
0?
0=
1<
1;
0:
19
18
07
06
04
13
01
10
1/
0.
0-
0,
1+
1*
0)
0(
0'
1&
0%
1$
0#
1"
#4400000
b10110111111001111010001000100000 A
b1100110110110000111001111100001 B
1?
1>
1=
1<
1;
0:
09
08
17
16
15
04
13
02
01
10
1/
1.
1-
0,
0+
0*
0)
1(
0'
0&
0%
1$
0#
1"
#4500000
b11111110101101011001001111101000 A
b11111101001000001110000101000110 B
0@
1?
0>
0=
0<
1;
0:
19
08
17
06
05
14
13
11
00
0/
0-
1,
0+
0*
1)
1(
0'
0%
0$
0"
1!
#4600000
b10110000000100011001111011110110 A
b11100111001110110100001100101000 B
1?
1>
1=
0<
0;
1:
18
17
06
15
03
12
01
00
1/
1.
0-
1,
0+
1*
1)
0(
0'
0&
1%
0$
1"
#4700000
b10011110001001111001010001011000 A
b10001011101101111000001000100000 B
0?
0>
1=
1<
1;
0:
09
08
17
05
02
01
00
0/
0.
0-
1,
1+
0)
1'
0&
0%
1$
0#
0"
#4800000
b11100001001011010000001010101101 A
b10100110001001011011000100000011 B
0@
1?
0>
0<
1;
0:
19
18
07
06
05
14
03
12
01
10
1/
1.
0-
0,
0+
0*
0)
1(
1'
0&
1%
1$
1#
0"
#4900000
b10000100001101010010011101110000 A
b11110001100010100100010001011010 B
0@
1?
1>
0=
1<
0;
0:
09
18
17
06
04
13
12
11
00
1/
0.
1-
0,
1+
1)
0(
1'
0&
0%
1$
0#
0"
#5000000
b1111010000110111100101010000111 A
b1101000010111101111000111100100 B
1@
1?
0>
0=
0<
1;
0:
19
08
07
06
15
14
03
12
11
00
0/
1.
1-
1,
1+
0*
1)
1(
0'
0&
0%
1$
0#
0"
0!
#5100000
b100001011111000011111011110110 A
b1010010110010111110001001100001 B
1@
0?
1>
1<
0;
0:
19
08
07
16
14
03
12
01
00
0/
0.
0-
1,
1+
0*
1)
0(
1'
1&
1%
0$
0#
1"
#5200000
b11011001110111100011111110101100 A
b1110100100100111110011100011111 B
0?
1>
1=
0<
0;
0:
19
08
06
1/
1-
0,
0+
1*
0)
1(
0'
1&
0%
0$
1#
1"
0!
#5300000
b111000111000110101101101011110 A
b11011010111101111101100001101111 B
1?
0<
1;
1:
19
08
17
06
05
04
03
02
11
10
0.
1-
0,
1+
1*
1)
1(
0'
1&
1%
1$
0#
1"
#5400000
b110011101000001010010000100 A
b10001001001000100011000110001101 B
1?
0=
1<
1;
1:
19
08
17
06
05
04
13
12
11
10
0/
0.
0-
1,
0+
1*
0)
1(
0'
1&
1%
1$
1#
1"
0!
#5500000
b1010001011011000101110111101 A
b1110000101001101110111001101001 B
0@
0?
1>
0=
1<
0;
1:
09
18
07
16
15
14
03
02
11
00
1/
1.
0-
0,
0*
1)
1(
0'
0&
1%
1$
0#
0"
#5600000
b1010000000011100001111101100001 A
b11011010111010101100010110110000 B
1@
0>
0=
1<
1;
0:
19
18
07
06
15
14
03
12
01
10
1/
0.
0-
0,
1+
0*
0)
0'
1&
0%
1$
1#
1"
0!
#5700000
b1111010110110110011011001000000 A
b11111010000100111111110010010010 B
0@
1?
1>
1=
0<
1;
18
15
14
13
02
10
1/
1.
0-
0,
0+
1*
1)
0(
0'
0&
0%
0$
0#
0"
1!
#5800000
b10010100100110101100110011011 A
b10010111101111011101010001001000 B
1@
1?
0>
0=
1<
0;
1:
09
18
07
16
05
04
03
02
11
0/
1.
0-
1,
0+
1*
1)
0(
1'
0&
1%
1$
1#
1"
0!
#5900000
b1100010011110101011011010010110 A
b1101010001001001100111101000010 B
0@
0?
1>
0=
1<
18
17
16
05
04
13
12
11
10
0/
0-
1,
0+
1*
0)
0(
0'
0&
1%
1$
1#
1"
#6000000
b1100001111110001001101101100111 A
b10010000011110111010000000011 B
0@
0<
1;
1:
09
18
17
16
05
04
13
02
01
10
0/
0.
1-
0,
1+
1)
1(
1'
1&
1%
0$
0#
1"
#6100000
b10100001110100101010101101101111 A
b111001010011110110110110110011 B
1=
1<
1;
0:
19
18
07
15
14
13
02
1/
0-
0+
0*
0(
0'
0&
1%
1#
1"
0!
#6200000
b1110001010001101101100001111111 A
b11101010100111110100111100100111 B
0>
1<
0;
1:
09
18
07
06
04
03
02
11
1.
0,
1+
0*
1)
0(
1'
1&
0%
0$
0#
0"
1!
#6300000
b10000011000100001010111011111111 A
b100001100100100100111001110110 B
1@
0<
0:
19
08
07
06
05
04
13
12
01
00
1/
1.
1-
1,
1*
0)
1(
0'
0&
0%
0$
1#
1"
0!
#6400000
b1111111100011001100000010101111 A
b11111111111010110001111000110100 B
1?
1<
1;
1:
09
17
06
05
04
13
02
11
10
0/
0.
0-
0,
1+
0*
1)
1'
1&
1%
1$
1#
1"
0!
#6500000
b10000110111010100010011101110 A
b1000100101101000000101011101000 B
0@
1>
0=
0<
0;
0:
09
08
17
06
15
14
01
10
0/
0.
1-
0,
0*
0)
0(
0'
1&
1%
0$
0#
1"
#6600000
b10011001110101011111010110100110 A
b11000100101001001111110101101000 B
1=
1<
1;
0:
09
08
07
06
15
14
13
12
11
00
0-
1,
1(
0%
1$
1!
#6700000
b11101101100110100000000010000110 A
b10001100101101111001011010000001 B
1@
0?
0=
0<
0;
0:
09
08
17
06
15
04
13
12
01
00
1/
0.
0-
0,
1*
1)
0(
0&
0%
0$
1#
1"
#6800000
b11000011011011001100011100010010 A
b10111101110111011101001101011001 B
0>
1=
1<
1;
0:
19
18
17
06
05
14
12
11
00
1/
1.
1-
0,
0+
0*
1)
1(
0'
1&
0%
0$
0#
0"
#6900000
b11111101010100011110101111111100 A
b11100010001111101001010100110101 B
1?
1>
0=
0<
0;
1:
19
08
17
16
05
03
12
01
10
1/
0.
0-
1,
0+
0*
0)
1(
1'
0&
1%
1$
0#
0"
#7000000
b1101010001000100000000000111010 A
b11011110101010010111110100010100 B
0@
1?
1>
1;
0:
09
18
17
06
05
04
03
02
11
00
0/
0.
1-
1,
1+
1*
0)
1(
1'
0&
1%
0$
0#
#7100000
b11101011001010110100001010111010 A
b1010101011010110010101011111001 B
1@
0?
0>
0=
0<
0;
1:
19
18
17
16
05
14
02
01
00
0/
0.
0-
0,
0+
1*
1)
1(
0'
1&
0%
1$
#7200000
b10100010010100101001000001111 A
b11000000011000000010010101001110 B
1@
0?
0>
0=
0<
0;
1:
19
08
07
16
15
04
13
00
1/
1-
1+
1*
1)
1(
1'
0&
0%
1$
0#
1"
0!
#7300000
b11011001010010001010100101001110 A
b11101011100010111110001011110 B
0@
1<
1;
1:
19
08
07
16
15
04
13
02
01
10
1/
1.
0-
1,
0+
1(
1'
0&
1%
1$
1#
0"
1!
#7400000
b11101000011001011011010111100110 A
b1101000010111110001110000111000 B
1?
1>
1=
0<
1;
0:
19
18
06
15
14
03
02
11
00
1/
1.
0-
0,
0+
0*
0)
0(
0'
0&
0%
0$
0#
0"
1!
#7500000
b10001110111001101000111111100111 A
b10001001011000001100011011000000 B
1@
0=
0<
1;
0:
09
18
07
15
04
03
12
11
10
0/
1.
0-
0,
0+
0*
1)
1(
0'
1&
0#
0"
#7600000
b11111000100011101111101111111101 A
b10100100110101100100110110001001 B
0@
0?
0=
1<
1:
08
17
16
15
04
13
02
11
00
0/
0.
1-
1,
1+
0*
1)
1(
1'
0&
0%
1$
0#
1"
#7700000
b100000011110100000111000000000 A
b1101000110000010110010100011110 B
0@
1?
0>
0=
0<
1;
1:
19
08
07
06
15
04
13
02
11
00
0/
0.
1-
1,
1+
0*
1)
1&
0%
1$
1#
0"
0!
#7800000
b100010101111011000011011101011 A
b11000111110010101100101010100111 B
0@
0?
1>
0=
0<
0;
1:
09
08
07
16
15
14
13
02
11
00
1/
0.
0-
1*
1)
0(
1'
0&
1%
0#
1"
#7900000
b1000110111100001110001001011011 A
b110110111010010010100100101111 B
1=
0<
1;
0:
09
18
07
06
13
02
11
10
1/
1.
0-
0,
0+
0*
0)
0(
0'
0&
0%
1$
0#
0"
#8000000
b10100111111101010011100011000010 A
b100010001111000110100110110110 B
0@
0?
1>
1=
0<
0;
09
17
16
15
04
03
12
11
00
0/
0.
1-
1,
1+
0*
1)
1(
1&
0$
0#
0"
1!
#8100000
b11110111001011010101111001 A
b1111001010011011111000011111011 B
0@
1?
1>
1=
1<
1;
1:
09
08
07
16
05
04
03
12
11
00
1/
1.
1-
0,
0+
0*
1)
0(
1'
0&
1%
0$
0#
0"
0!
#8200000
b11110011010001000001110001100101 A
b10101111010111101111101110101100 B
1@
0?
0>
1=
1<
0:
19
08
07
06
05
13
02
01
10
0/
0-
0,
1+
1*
1)
1(
1'
0&
0%
0$
0#
1"
1!
#8300000
b10000000100000010001010101111100 A
b1001110101000110100101000010 B
0@
1?
0>
1=
1<
1;
0:
09
08
07
16
15
04
11
00
0/
1.
1-
0*
1)
0(
1'
1&
1$
1#
1"
0!
#8400000
b101011110110111110110100000010 A
b11010010101001110101010010011110 B
0?
1>
0=
0<
1;
1:
09
08
06
15
14
03
02
11
00
0/
1.
0-
1,
1+
0*
0)
1(
0'
0&
1%
1$
0#
1"
#8500000
b11101101100101001101001011010010 A
b100101010000011001001101000000 B
1?
0>
0=
1<
0;
0:
19
18
17
16
15
14
13
02
01
10
1/
0.
0-
1,
0+
1*
0)
0(
0'
0&
1%
0$
0#
1"
1!
#8600000
b11110111000110000101001011010111 A
b11111000010001011101001101101110 B
1@
0?
0>
1=
0<
1;
1:
09
12
01
00
0.
0-
1)
0(
1'
1&
1%
1$
1#
1"
#8700000
b1110111010000100000001111011111 A
b11111110111011011110011110111011 B
0@
1>
0=
0<
1;
0:
09
08
07
16
14
03
02
0/
1.
0-
1,
0+
1*
0)
0'
0&
0!
#8800000
b1100100100010100000011100011000 A
b1000000100111010001111110010101 B
1@
1?
0>
0=
0;
0:
19
18
17
16
05
04
13
12
11
1-
0,
1+
1*
1)
1(
1'
0&
0%
0$
1#
0"
#8900000
b11101100000001101111101111100000 A
b11001111101011010001100000110001 B
1>
1=
0<
1;
0:
19
18
17
06
05
04
13
12
11
10
0.
1-
1,
0+
0)
0(
0'
1&
1%
1$
0#
1!
#9000000
b110001101101011001000100111111 A
b11101000011101101101000110110100 B
1@
1?
0>
1=
0<
0;
0:
19
18
17
16
15
14
13
02
11
00
1/
1.
1-
1,
1+
0*
0)
1(
0'
0&
1%
0$
0#
1"
0!
#9100000
b10011011000110000001101110110101 A
b1001111111001010011010010 B
1?
0>
0=
1;
1:
19
08
17
16
05
04
03
02
11
00
0/
0.
1-
1,
0+
1*
1)
1(
0'
1%
1$
0#
0"
1!
#9200000
b10110000110100001101101110011000 A
b11100110110100000011000010010111 B
1@
0?
0>
0=
0;
0:
09
18
06
15
13
02
11
00
0/
0.
0-
0,
0+
0*
0)
0(
1'
0&
1%
0$
0#
1"
#9300000
b1100101110000000000001101010111 A
b11100100111101101101010010101110 B
1@
0?
0>
1=
0<
1;
0:
19
08
16
15
04
13
02
01
10
0/
0.
1-
0,
0+
1*
1)
0(
0'
0&
0%
0$
0#
0"
1!
#9400000
b101111011110101011001110000010 A
b11101010111100000100100011 B
1@
1?
1>
1=
1<
0;
1:
09
08
17
06
05
14
13
12
11
00
1/
1.
1-
0,
0+
1*
1)
1(
1'
0&
1%
1#
0"
0!
#9500000
b10100000010111101011110100100001 A
b1000011110101110101101001000101 B
0@
0?
1>
0;
1:
19
08
17
06
05
04
01
10
1.
0-
0,
0+
0*
1)
0(
0'
1&
1%
1$
0#
1"
0!
#9600000
b1100011101011010100110100111000 A
b100000001111110000000111011110 B
0@
1?
0>
1=
1<
0;
09
18
17
06
15
04
03
12
01
00
1/
1-
0,
1+
1*
0)
1(
1'
0&
0%
0$
0#
1"
#9700000
b1100000010010101010110101111111 A
b101011100011111011000000001011 B
0@
0?
1>
0=
1<
1;
1:
09
18
07
16
14
13
12
11
00
1/
0.
1,
1+
0*
1)
0(
0'
1&
0%
1$
1#
0"
#9800000
b11101100001111000000010110001101 A
b11100101011111001001110010011001 B
0?
1>
1<
1;
1:
19
08
06
15
04
13
01
10
1/
1.
1,
1+
0*
1)
0(
1'
1&
0%
0$
0#
0"
1!
#9900000
b11100110111000101100100110111010 A
b1010101010011101111110111000000 B
0@
1?
0>
1=
1<
1;
1:
18
17
06
15
04
03
12
11
10
1/
0.
0-
1,
0+
0*
1)
1(
0'
0&
0%
1$
0#
