_service/20191222135531_SimulateISim_c0np4nn4_LEA_Encrypt_tb/LEA_Encrypt_tb.vcd
$date
   Sun Dec 22 13:55:36 2019
$end
$version
  P.15xf
$end
$timescale
  1ps
$end
$scope module LEA_Encrypt_tb $end
$var wire 1 ! Dout [127] $end
$var wire 1 " Dout [126] $end
$var wire 1 # Dout [125] $end
$var wire 1 $ Dout [124] $end
$var wire 1 % Dout [123] $end
$var wire 1 & Dout [122] $end
$var wire 1 ' Dout [121] $end
$var wire 1 ( Dout [120] $end
$var wire 1 ) Dout [119] $end
$var wire 1 * Dout [118] $end
$var wire 1 + Dout [117] $end
$var wire 1 , Dout [116] $end
$var wire 1 - Dout [115] $end
$var wire 1 . Dout [114] $end
$var wire 1 / Dout [113] $end
$var wire 1 0 Dout [112] $end
$var wire 1 1 Dout [111] $end
$var wire 1 2 Dout [110] $end
$var wire 1 3 Dout [109] $end
$var wire 1 4 Dout [108] $end
$var wire 1 5 Dout [107] $end
$var wire 1 6 Dout [106] $end
$var wire 1 7 Dout [105] $end
$var wire 1 8 Dout [104] $end
$var wire 1 9 Dout [103] $end
$var wire 1 : Dout [102] $end
$var wire 1 ; Dout [101] $end
$var wire 1 < Dout [100] $end
$var wire 1 = Dout [99] $end
$var wire 1 > Dout [98] $end
$var wire 1 ? Dout [97] $end
$var wire 1 @ Dout [96] $end
$var wire 1 A Dout [95] $end
$var wire 1 B Dout [94] $end
$var wire 1 C Dout [93] $end
$var wire 1 D Dout [92] $end
$var wire 1 E Dout [91] $end
$var wire 1 F Dout [90] $end
$var wire 1 G Dout [89] $end
$var wire 1 H Dout [88] $end
$var wire 1 I Dout [87] $end
$var wire 1 J Dout [86] $end
$var wire 1 K Dout [85] $end
$var wire 1 L Dout [84] $end
$var wire 1 M Dout [83] $end
$var wire 1 N Dout [82] $end
$var wire 1 O Dout [81] $end
$var wire 1 P Dout [80] $end
$var wire 1 Q Dout [79] $end
$var wire 1 R Dout [78] $end
$var wire 1 S Dout [77] $end
$var wire 1 T Dout [76] $end
$var wire 1 U Dout [75] $end
$var wire 1 V Dout [74] $end
$var wire 1 W Dout [73] $end
$var wire 1 X Dout [72] $end
$var wire 1 Y Dout [71] $end
$var wire 1 Z Dout [70] $end
$var wire 1 [ Dout [69] $end
$var wire 1 \ Dout [68] $end
$var wire 1 ] Dout [67] $end
$var wire 1 ^ Dout [66] $end
$var wire 1 _ Dout [65] $end
$var wire 1 ` Dout [64] $end
$var wire 1 a Dout [63] $end
$var wire 1 b Dout [62] $end
$var wire 1 c Dout [61] $end
$var wire 1 d Dout [60] $end
$var wire 1 e Dout [59] $end
$var wire 1 f Dout [58] $end
$var wire 1 g Dout [57] $end
$var wire 1 h Dout [56] $end
$var wire 1 i Dout [55] $end
$var wire 1 j Dout [54] $end
$var wire 1 k Dout [53] $end
$var wire 1 l Dout [52] $end
$var wire 1 m Dout [51] $end
$var wire 1 n Dout [50] $end
$var wire 1 o Dout [49] $end
$var wire 1 p Dout [48] $end
$var wire 1 q Dout [47] $end
$var wire 1 r Dout [46] $end
$var wire 1 s Dout [45] $end
$var wire 1 t Dout [44] $end
$var wire 1 u Dout [43] $end
$var wire 1 v Dout [42] $end
$var wire 1 w Dout [41] $end
$var wire 1 x Dout [40] $end
$var wire 1 y Dout [39] $end
$var wire 1 z Dout [38] $end
$var wire 1 { Dout [37] $end
$var wire 1 | Dout [36] $end
$var wire 1 } Dout [35] $end
$var wire 1 ~ Dout [34] $end
$var wire 1 !! Dout [33] $end
$var wire 1 "! Dout [32] $end
$var wire 1 #! Dout [31] $end
$var wire 1 $! Dout [30] $end
$var wire 1 %! Dout [29] $end
$var wire 1 &! Dout [28] $end
$var wire 1 '! Dout [27] $end
$var wire 1 (! Dout [26] $end
$var wire 1 )! Dout [25] $end
$var wire 1 *! Dout [24] $end
$var wire 1 +! Dout [23] $end
$var wire 1 ,! Dout [22] $end
$var wire 1 -! Dout [21] $end
$var wire 1 .! Dout [20] $end
$var wire 1 /! Dout [19] $end
$var wire 1 0! Dout [18] $end
$var wire 1 1! Dout [17] $end
$var wire 1 2! Dout [16] $end
$var wire 1 3! Dout [15] $end
$var wire 1 4! Dout [14] $end
$var wire 1 5! Dout [13] $end
$var wire 1 6! Dout [12] $end
$var wire 1 7! Dout [11] $end
$var wire 1 8! Dout [10] $end
$var wire 1 9! Dout [9] $end
$var wire 1 :! Dout [8] $end
$var wire 1 ;! Dout [7] $end
$var wire 1 <! Dout [6] $end
$var wire 1 =! Dout [5] $end
$var wire 1 >! Dout [4] $end
$var wire 1 ?! Dout [3] $end
$var wire 1 @! Dout [2] $end
$var wire 1 A! Dout [1] $end
$var wire 1 B! Dout [0] $end
$var reg 128 C! Din [127:0] $end
$var reg 192 D! RoundKey [191:0] $end
$upscope $end
$enddefinitions $end
#0
$dumpvars
b11000011001100110101111010010111100011101101001001001110100010000100110011010011001101001010100111000001111101010011000011101110 C!
b101110000110000001001010011110100111011000000011001101111111100110110000101001010101010101110001010110011011010001011110101110111110111101100110111101011010111101000001100010010010110010010 D!
0B!
1A!
1@!
0?!
1>!
1=!
0<!
1;!
0:!
09!
08!
07!
16!
15!
04!
03!
12!
11!
10!
1/!
1.!
1-!
1,!
1+!
1*!
1)!
1(!
0'!
0&!
0%!
0$!
0#!
1"!
0!!
1~
1}
1|
0{
0z
0y
1x
0w
1v
0u
0t
1s
1r
0q
1p
0o
1n
0m
0l
0k
0j
0i
1h
0g
1f
0e
0d
1c
0b
0a
1`
0_
0^
1]
0\
0[
0Z
0Y
0X
0W
0V
0U
1T
1S
0R
0Q
0P
1O
0N
1M
0L
0K
0J
1I
0H
1G
0F
0E
1D
1C
1B
1A
0@
1?
1>
1=
0<
1;
1:
19
08
07
06
05
14
13
02
01
10
0/
1.
0-
1,
1+
1*
1)
1(
0'
0&
0%
0$
0#
1"
1!
$end
#100000
b11010111101111010100000100000011010111000101101011100011110100010101100000110011001100011000111110101000001111100010110110101110 C!
b1110111000011111000101111110110101011001000010110000001001110010100100100111001100100000101110000100010111000101011110110011101100101000001110000110111001110010110010000010011101110011011001 D!
0B!
0A!
0@!
1?!
0=!
1<!
0;!
18!
07!
16!
05!
0/!
0,!
0+!
0*!
1)!
0(!
1'!
1%!
1$!
1#!
0"!
1!!
0~
1}
1|
0{
1z
1y
0x
0u
0t
0s
0p
0n
1l
0k
0j
0h
1g
0d
0c
0b
0a
0`
0_
0^
1]
1X
0W
1V
0U
1T
0S
1R
0Q
0P
1J
1G
1F
1E
0D
0B
0:
18
16
15
04
00
1/
1-
0*
0)
0(
1%
1#
0"
#200000
b11101101111010000100110011000010111101100111000000100100010011111111101111110011101000010111110010000010110100001000010110110000 C!
b101110100110100101000111001101101110011010110111001111011111110001011110000110110110101110010111010010011010101010110000010100000010110101101001011000111101010100001010110001111111000101001111 D!
1B!
1@!
1?!
1>!
1=!
0<!
1;!
1:!
08!
05!
14!
11!
1/!
0.!
1,!
0+!
0)!
1(!
0'!
0#!
0!!
0|
0z
0y
1x
1w
0v
0t
1s
0r
0q
0p
1o
1n
0m
1l
0k
1j
1i
0h
0d
1c
0b
0_
1^
0]
1\
1[
1Y
0X
0W
1V
0T
0R
0Q
1P
0O
0N
1M
0L
0K
0J
0I
1H
0G
1F
1B
0?
0>
0=
1<
05
03
11
0/
0.
0-
0+
1*
1)
1'
0%
0#
#300000
b11110011001111100011001011011011001010000001011110100010101110111011110101001010001011100000110001011110010000111111110000011101 C!
b10010011011111000000010011000110100110000000010111010000101010001010000000101101000010100100110011010111011011101011010000011011010100011101011111011110101010000101110001001000001110111111101 D!
0B!
0A!
1@!
0>!
0=!
0<!
0;!
0:!
08!
07!
16!
15!
14!
03!
02!
10!
0/!
0-!
1*!
1)!
0(!
1&!
0%!
0$!
0#!
0"!
0!!
1~
1}
1|
0{
1z
1y
0x
0w
1v
1t
1s
1r
1q
1p
1o
1n
0m
1k
0i
0h
1g
1f
1d
1b
1a
0_
1^
1Z
0Y
1X
1W
1V
1U
0T
1S
0R
1Q
0P
1O
0M
1L
0K
1J
1I
1H
1G
0F
0E
1D
1@
1>
1=
0;
09
08
15
14
13
12
10
1/
0,
0)
1&
1%
1$
1"
0!
#400000
b100111100010010100111101110010110101100101100110101011101010110100110101111000100101011001110000111000000110111010101001111100 C!
b110010000010010101110001010101100001111001110011010111111101111001000011100010111000000011011011101011111101001101001101111011110101110000001110000101101011100110010001011000000100100110000 D!
1A!
0@!
0?!
0>!
1=!
1<!
0;!
0:!
19!
18!
17!
06!
15!
04!
12!
01!
0/!
1.!
1-!
1+!
1*!
0)!
0&!
1%!
1$!
1!!
1{
0z
1y
0x
1w
1u
1t
0s
0q
0o
0j
1i
0f
1e
0d
0c
0b
1`
0_
0]
1[
0Z
0X
0W
0U
1T
1S
0R
1Q
0P
0O
1N
0L
0K
0J
1I
0H
1G
0F
1E
0D
0C
0B
0A
0@
1;
1:
17
06
04
02
1-
1,
0*
0'
0&
1#
0"
#500000
b10011100101011010110111100100000101011010010011001100100001100011000001111110101000010110001101111001000001011101011111001010011 C!
b101110010001000001010010000001001011101110100101110011100110110100000110011001010111010011110000111111101101010101001110011100010010111110110000000110000000001110101100010010011110011110010111 D!
1B!
0A!
0?!
0<!
0;!
1:!
09!
08!
16!
15!
04!
13!
12!
01!
00!
1/!
1.!
0-!
1,!
0*!
1'!
1&!
0%!
1$!
0#!
1"!
0!!
0~
0}
1|
1y
0x
1w
0v
1u
1t
0s
0r
1o
0n
0l
0k
1j
0i
1h
0g
1f
1d
1b
0a
0`
0_
0^
0]
1\
1Z
1Y
0W
1V
1U
1T
0S
0Q
0N
1M
1H
1G
1F
0E
1@
1?
0>
0=
0;
16
14
00
1.
0,
1+
0$
0#
1"
1!
#600000
b1110011010101111010110001100110100100010010111111000000110100000011111010011010101001110000101001100000101110111010010110101 C!
b10010110000111111100000001101000011010100001110001000011010111000101000001010111010101001011011001011111011100100101010001010010101011011101000010110011100010010101111111110101011000100001110 D!
0B!
1A!
0@!
1?!
0>!
1=!
1<!
0;!
08!
07!
06!
05!
14!
13!
10!
0/!
0.!
1-!
0,!
1*!
0'!
0%!
1$!
0#!
0"!
1}
0|
0{
0z
1y
0x
1w
1v
0u
0t
0s
1r
1q
1l
0k
0j
0d
1`
0_
1^
1]
0\
1[
1Z
1X
0W
1U
1T
0S
1O
0N
0M
1L
0K
0G
1D
1A
0?
1>
1;
0:
19
07
05
12
01
10
0-
1,
0+
1&
0!
#700000
b10010101110011100010111110000010000110100110100111000101000101011010010001111110101000110111010011001100100110001001101110011 C!
b100011111000111100001100011010100101001010011100001100100111100000001000110001011111010100110110000000001011111011001100011111111001100101110011100101100010100101011011011000111111110010000011 D!
1B!
0A!
0?!
0>!
1=!
1;!
0:!
19!
18!
17!
06!
15!
14!
03!
02!
01!
10!
0/!
0.!
1-!
1,!
0+!
0*!
1)!
0(!
1'!
1&!
0%!
1#!
1"!
1~
1}
0|
1{
0z
0y
1x
1w
1v
1u
0t
0s
1r
1q
1p
0o
1n
1m
1k
1j
1i
1h
1g
0f
1c
0b
0`
1_
1]
0\
0[
0Z
1Y
0X
1W
0V
1S
1R
1Q
0P
0O
0N
0M
0L
1K
1J
1I
1H
0G
1F
0D
1A
1?
0>
1:
09
18
17
06
03
02
0.
1)
1(
0&
1$
0"
1!
#800000
b1111101100101011001000110101111110001011000110010010100100100111001111100011010100001111000101001111010111101110100101111101 C!
b101010011101011110111110100000000011000110101011111101100010110111010100001110101000000110011100011110011110001111101000010101111110010110100011011010011111111101011011100000010110000001011001 D!
0B!
1A!
1@!
0?!
1>!
0=!
1<!
0;!
09!
07!
06!
15!
02!
01!
0/!
0.!
0-!
0,!
1+!
1*!
1)!
1(!
1'!
1&!
1%!
0$!
0#!
1"!
0!!
1|
0{
1z
0y
0x
1w
1t
0q
0p
0m
0j
1i
0g
0e
1c
0b
1a
0`
1_
1]
1[
0Z
0Y
0X
1W
1V
0T
1P
1O
1N
1M
0L
1K
1J
1I
1H
0G
1F
1E
1D
0B
1A
0?
1>
1=
07
15
04
13
12
11
00
1.
1-
1*
0)
1'
1&
0$
1"
0!
#900000
b11100011100010001010000011100101100001101001001010001111101011111001010100100011001101111101011100111010010000011011011011000110 C!
b100010000000010010100110011100011110110011101100001001000001111110101000100100001100110111011101111100100101001010001011101101101011000111010001111001110011111001111111111010011011010111101111 D!
1B!
0A!
1@!
1<!
1;!
18!
06!
04!
03!
02!
01!
00!
1/!
1-!
0,!
1+!
1*!
0)!
0'!
0#!
0"!
1!!
1~
0}
1{
1y
1x
1w
1v
1u
1t
0s
0r
1q
1p
1o
0n
1m
0l
1k
0j
1i
0h
0g
1e
1d
0c
0b
1a
0`
0_
0^
0[
1Z
0Y
0X
1W
0U
1T
0S
0Q
1P
0O
0N
0M
0L
0K
1J
1I
0H
1G
0F
1E
0D
0B
1A
0@
1?
0=
0<
0;
19
08
17
16
05
14
02
10
0/
0.
0-
0,
0(
0&
1$
1#
0"
#1000000
b110011001001101010011100001101100010011110011111111110101010101010110001110000000111111001011101011111111001100100001100100010 C!
b11111100010001000101100011111101100010110111110001101110010100110101101000101111000110010001111111001001111010100111111001111011001100001111011110001111100101111011100010101011011011110111100 D!
1B!
1A!
1@!
1?!
0>!
1=!
0;!
18!
07!
16!
14!
13!
12!
01!
00!
1/!
1.!
0-!
0,!
1+!
1*!
1)!
1(!
1'!
1$!
0#!
1~
0}
0{
0z
0x
0w
1v
0t
1s
1m
1k
1j
0i
1h
1g
1c
1b
0a
1_
1^
1]
1\
0[
0Z
1Y
0X
0V
1U
0T
0S
1R
1Q
1P
1O
0N
1M
0L
1K
0J
0I
1H
0E
1B
1A
0>
1;
0:
09
18
06
04
03
12
01
00
1/
1.
1+
1)
1(
1&
0#
1"
#1100000
b100111001010111110000001100000001011001111100010010001010001000010110101110011100011101001111111010101110111000100110101011100 C!
b111010111010110010101110101110111001100011110011111010110100110110011000000100111101000010110000001100110101010101011011101101011000011011111010001100010100100100000101011111110000011111010011 D!
0B!
0A!
0@!
1?!
1>!
1;!
1:!
19!
08!
17!
06!
05!
02!
01!
10!
0/!
1.!
0-!
0,!
0+!
0*!
1)!
0(!
0%!
0!!
0~
1}
1|
1{
0w
0v
0u
1t
0s
0r
1q
0p
0o
0n
1m
1l
0k
0j
1i
0h
1g
0e
1a
0_
1^
0Z
0Y
1X
0W
0V
1U
1T
0S
0Q
0P
1O
0M
1L
0K
0H
0G
0F
0E
1D
0B
0?
1>
1=
1<
0;
1:
07
16
15
0/
1-
1,
0+
0'
0%
1!
#1200000
b11011011010101110011001011001101001111000010000011001010001010010000010111110111000010000111110100001111111101000011100001001110 C!
b1000100010001001000111000111011001100100101100111111110100010000111100100000000101111011001100001010100100101011101110000101110101000001001111011010011100000101001010111100101101000101000 D!
1B!
1@!
0>!
1=!
0<!
0;!
1:!
18!
07!
16!
05!
14!
03!
12!
11!
10!
1/!
0.!
0-!
0,!
1+!
0(!
0'!
1&!
0%!
1$!
0#!
1"!
1~
1u
1t
1s
1r
0q
1p
1o
0n
0m
0l
1k
1j
1i
1h
0g
1f
1e
0a
1`
0_
1^
1]
1\
1[
1Z
1Y
1X
0W
0R
1P
1O
0N
0L
1J
1I
1H
1F
1E
1C
1B
1A
1?
0<
08
06
14
13
02
0-
1+
1'
1%
0$
0"
0!
#1300000
b1001110111011011001110000110110011010001010010010011111101101010101110101010010110111101010101001100001000010001111001010101100 C!
b10110010110110110011101100110001000001010010110101110110111101011010110101101001000011110000000001001111110111100101111011100011011111110110101100111111011110110011000001100010000101101001001 D!
0B!
0@!
1>!
1=!
0<!
1;!
09!
08!
17!
15!
13!
12!
01!
10!
0/!
1.!
1-!
1,!
0+!
0(!
0'!
0&!
0%!
1$!
0"!
0~
0}
0{
1z
0y
0x
0w
0v
0u
1t
0p
1n
0m
0l
0k
1j
1i
1h
0g
1f
0e
0d
0c
0b
1a
1`
1_
0\
0[
1Z
0X
1V
0U
0T
1R
0Q
0P
1N
1L
1K
0J
0I
0H
0F
0E
1D
0B
1A
0?
1;
0:
19
17
05
12
11
0.
1-
0,
0+
0*
0)
0'
0&
0%
1#
1"
#1400000
b10111111001111101110100101011100010110100010000011100100011101111010011101101001110110101010010010110110010111100100001010000001 C!
b11000101101110111111011101111111100101111110101100010011001001011000010010000101011101111111000000100101101001010001111100100111101000110000100100000111011010001011100011101010001010100011010 D!
1A!
0@!
0?!
0>!
0=!
1<!
19!
18!
07!
16!
05!
14!
03!
00!
0/!
0.!
1-!
1,!
1*!
0)!
1&!
1%!
0$!
1!!
1~
0}
0|
1{
0z
1y
1x
0w
1v
1u
0t
1s
1q
0p
0o
0n
0m
1l
1k
1j
0i
0h
1g
1d
1c
0a
1`
0_
0^
1]
1\
0Z
0Y
0X
0W
0V
0U
1T
0R
0Q
1P
1L
1K
1J
1I
1H
0G
1F
1E
0C
0B
0A
1@
0>
0=
0;
04
03
01
1/
1.
1,
1*
0(
1'
1&
1$
0"
1!
#1500000
b1011010011000110001111011011001100110110001001111011111001101101100010011100000100000010110000011010011101000110000111111001000 C!
b101101010011001000010100001001110010001011110010000111011110100101101101011101010110110011111110110101001100011001000110001100110101000001001001011110001100010101010101010011111001000011001100 D!
1B!
1@!
0?!
1>!
1=!
0<!
0;!
08!
16!
14!
03!
1.!
0,!
0+!
1*!
0)!
1(!
1'!
0&!
0"!
0!!
0~
1}
1|
0{
1z
1y
1x
1w
0v
1u
1r
0q
1n
0m
1l
1k
0j
0g
1f
1e
1d
0c
1b
1a
1_
0^
1]
1[
0Z
1Y
1X
0W
0V
1U
1T
0S
1R
0Q
0P
0L
0J
0I
1H
0G
1F
0E
1C
0B
1A
0@
1=
1:
18
16
15
02
10
0.
0-
0,
1+
0*
1)
1(
0&
0#
1"
#1600000
b1101110111111100100001001100010001011100001000111100101001100001010011010001100111010101101110110101110100010000100111100010101 C!
b110100000100101010001110010011001101111100001100011010110100110000000101000000111111111101100110010110110111001010001010001011001001110111010001101110111010001010101100001101011000110110001010 D!
0B!
0A!
1@!
1?!
1>!
1=!
1<!
0;!
0:!
09!
18!
17!
15!
04!
03!
02!
01!
00!
1/!
0.!
1-!
0,!
0+!
0*!
1)!
0'!
1&!
0$!
0#!
0"!
1!!
1|
0{
1z
1y
1x
1w
0v
0u
0s
0r
1q
0p
0o
0n
1m
0l
0k
1j
0i
1h
1c
0b
0a
0_
1^
0]
0[
1Z
0Y
1X
1W
0T
0S
1R
0P
1O
0N
1M
1L
1K
1J
1I
1H
0G
0C
1B
0A
1@
1>
0=
1<
0:
09
12
00
0/
1-
0+
0(
1&
1%
0$
1#
0"
#1700000
b11100011001111001100010110101000001010110011110000001111111000111100000110011101001101101111101110111010111111001010101101101000 C!
b111101111100101000011011010000100101000001011000111000110011010010101110110110100101100010011101111101111001010101010010111110010011111101010100110111100000111110110000001101010111111000101111 D!
1B!
1A!
0@!
0?!
1>!
0=!
0<!
0;!
1:!
19!
18!
07!
15!
14!
03!
10!
1/!
1.!
1-!
1,!
0+!
1*!
0&!
0$!
0#!
0"!
0!!
1~
1}
1|
0{
1z
0w
1v
1t
1s
1r
0q
1p
1o
1n
1m
1l
0k
1i
1h
0g
0f
0e
0d
0c
0b
0a
0`
0_
0^
1]
1[
0W
0V
1U
1T
1S
1R
0Q
1P
1O
0N
0L
0K
0J
0I
0H
1G
0F
0D
1C
0B
0A
0@
0>
1=
0<
1;
1:
06
13
02
11
1.
1,
1+
1*
0&
1$
#1800000
b1100011000110110110100100010001011110100100001111101111000000100101111110010111000100010101101000111011010010011010101100100000 C!
b10001010111010100010001001000000000010110011000101001011001011001101110000111011111010110000101011001000001001100011000001100100000101010111001010101010000000100001100111001000000110101111000 D!
1B!
0A!
0@!
1?!
0=!
0:!
06!
15!
14!
12!
01!
10!
0/!
1.!
0-!
1+!
1*!
1)!
1(!
0'!
1&!
1#!
1"!
1!!
1~
1}
1|
0{
0z
0y
1x
0v
0s
0r
0q
1p
1k
1j
0i
0h
1g
1e
1d
1c
1b
0a
0`
0_
1\
0[
0X
1S
0R
0Q
1P
0O
0N
1M
1J
1I
0G
1F
1A
0=
0:
10
0.
0,
0+
0)
1(
0!
#1900000
b1011011100011100000011000111001010001010001011010010110101011011000010101000000011101101111010111001000001100001101000001110010 C!
b10100101100110000100000000101110000011000110010011000101011011110011101110010001111001010111101111101010111100010001110111100100111111111001001100101100101111011111110101000101011011110110100 D!
0B!
1A!
0@!
0?!
0>!
1=!
1<!
1:!
08!
07!
06!
15!
14!
13!
02!
01!
00!
0/!
1.!
0,!
1+!
0*!
0)!
0(!
1'!
1&!
1%!
0$!
0#!
0"!
0!!
0~
0}
0|
1{
1z
1y
0x
1w
0v
1u
1s
0r
1q
0p
0o
0n
1m
0l
0k
1f
0b
1a
1`
0_
0^
1]
0\
1X
1W
0V
0U
0T
1S
1R
1Q
0P
0O
1N
1M
0L
0K
0J
1H
0G
0F
1E
0C
0A
1?
1<
1:
08
07
05
14
03
12
00
0-
1,
1+
0*
0(
0'
0$
0#
1"
1!
#2000000
b11111111010011000111111001001000010110101011001001000001111101111111110010010000001000010011100001101001100100101011000011011011 C!
b10110001000111001001011010100001011101110100110000101111000100101101111100011000100101111101011111000100011110001101110110011101111001100110000011011110100100101111110000101111111110000110101 D!
1@!
1?!
0=!
0;!
0:!
18!
17!
16!
15!
04!
13!
02!
11!
10!
0/!
1-!
0+!
1*!
1)!
0(!
1'!
0&!
0%!
1$!
0"!
0!!
0~
0}
1|
0{
1z
1y
1w
0v
0u
0s
1r
0q
1p
1o
1n
1m
1l
0k
0j
1i
0f
0e
0c
0b
1a
0`
1_
0]
1\
1[
0W
0V
0U
1T
0S
1O
0N
1L
0I
1H
0E
1D
1B
1A
1@
1=
0;
19
13
02
1/
0+
1)
1(
1#
0!
#2100000
b1110100100110101100110100110010011010000110101000111010001000100000011001000001101011000010110001110110110011100110100101010110 C!
b111100100110101000001011011000101011011101000111010011110101011100001010101001101111010001110010001100101000111111011000101100000001010011111001101101010111101100110011011111001010011010101010 D!
0A!
0@!
0?!
1>!
1=!
0<!
1;!
07!
06!
15!
04!
13!
00!
0/!
1.!
0-!
1,!
1+!
1*!
0)!
1(!
0'!
1&!
1$!
1#!
1"!
1!!
1~
0}
1|
0{
0z
0y
0x
1w
0v
1u
1q
0p
0o
1n
1m
1k
0j
1i
0h
0g
0d
1c
1b
0a
0_
1]
1W
1V
0U
0T
0S
1R
1P
0M
0L
0K
1J
1I
0H
0G
1F
1E
1C
0B
0@
1>
0=
09
18
15
04
12
01
1.
1-
0,
1*
0(
1'
1&
0%
1$
#2200000
b11011001100100011111101010001110000110001110100110101010111011100000000010010101000110010001110101110110010111110111100010110101 C!
b1101101100000101100010110010110010011000100000111111110111111100110111001111011000010101001011111000000101110000000011011110010010100100010010000111011110011001110011111011101111000110011 D!
1B!
1A!
0@!
1?!
1>!
1=!
0<!
1;!
17!
06!
05!
14!
03!
02!
00!
0.!
0,!
0+!
0*!
0)!
1(!
0'!
1&!
1%!
0$!
1"!
0!!
1~
1}
0z
1y
1x
0w
1v
0u
0t
1s
0q
1p
1n
0m
0k
1j
1i
1h
1g
1f
1e
0c
1b
1a
1`
1_
0^
1]
1\
1[
1Z
0Y
0W
0V
0U
1T
1S
0P
1O
1N
1M
0L
1K
1J
0I
1H
1G
0F
1E
1D
0C
0B
0A
1@
0?
1;
0:
19
08
14
10
1,
0)
#2300000
b1110101110110001111100100001011000100001000011111011100000011101101110010101101101000000111110001010010001010111010101111100010 C!
b100110101010010111101100111010111101111011011100101011011101011011110001001101110011100111110000111111111001001110100011100011110010001101110110010011010111010010011001111100110101110000011010 D!
1B!
1A!
1@!
0?!
1>!
0=!
0<!
1;!
1:!
09!
08!
07!
05!
04!
03!
02!
11!
00!
1/!
1,!
1+!
1*!
0(!
1'!
0&!
1%!
1$!
0#!
1"!
1!!
1}
0|
0{
1z
0y
1x
1w
1v
0u
1t
1s
1r
0q
1o
0l
1k
0j
0i
0h
0g
0b
1a
1`
1_
1^
0]
1\
1[
1Z
1Y
0X
0S
0R
0Q
1P
0N
1M
1L
0J
1I
1F
0E
0B
0A
0@
1?
0>
0<
1:
18
17
04
02
11
0.
0,
1+
0*
0&
0#
#2400000
b1010110101111101001110111011111100011100011100111001011010100110010000000010000011111101010011000101011111001010001111100101111 C!
b10111010100011000011111110111001101110111001011000000100011101010011110001111101011001100110110001011010101010000110001010111000001011000000001111110001010111100100110010111001100001101110110 D!
1B!
1A!
1@!
0?!
0>!
0:!
18!
14!
13!
02!
01!
10!
0/!
1+!
0*!
1)!
1(!
0'!
1&!
0%!
0$!
1#!
0"!
0~
0}
0y
0x
1w
1v
1u
0s
1r
0p
1o
0n
1m
0l
1k
1j
1i
0h
0g
0f
1d
1c
1b
1a
0_
1]
0\
1[
1Z
0Y
1X
0V
1U
0T
1S
1R
0Q
1P
0O
1N
1K
1J
1H
1G
0F
1E
0D
0B
1A
1@
1>
1=
0:
09
16
14
03
01
0/
1.
0-
1*
1)
1(
1%
0$
1#
0"
#2500000
b10110101000011110110011111010010101011101010110010010010000001111010111101111010000000011000000000000110000111111001110110010011 C!
b100010000000111001000101111001000110110011001100110011001100111100011000010010010111100011110110100111111100101010010111110110110110010101110010111001000110000100110010110011100100100000101 D!
0B!
0A!
0@!
1?!
0>!
0=!
1<!
1;!
0:!
18!
07!
06!
05!
14!
03!
12!
11!
00!
1-!
0+!
1*!
0)!
1(!
0'!
1&!
1%!
0$!
0#!
0"!
0!!
1~
0}
0z
1y
0w
0v
1u
0t
0s
1r
1p
0o
0m
1l
0k
1j
0i
0h
1g
0e
0d
1c
0b
1a
1`
0_
0^
0]
0\
1[
1Z
0Y
1X
1W
1V
0U
1T
1S
1R
0Q
0P
0O
0N
1M
0L
1K
1J
1I
0H
0G
1E
0B
0>
0=
1<
0;
19
07
11
1/
1-
1,
0+
0*
0)
0(
1&
0%
0#
#2600000
b1000011000110001010110100011000110000010011110001100111100100000100100010010111101011010010000101010100110011101000011001101001 C!
b110100000011110111100010100011111110110100111111000111001100010101100101000010100100110110010100000110110010100000101010111001000010101001110101010101001110110010110011110110001000101100001010 D!
1B!
1A!
0@!
0?!
1>!
0<!
1;!
1:!
08!
07!
06!
15!
14!
03!
02!
11!
10!
1/!
0.!
0-!
0,!
0+!
0*!
1)!
0(!
0'!
1&!
1$!
1#!
0"!
1!!
1~
1}
0|
1x
0w
1v
1u
0t
1s
0r
1q
1p
1o
1n
1m
1l
1k
0j
1i
1h
1g
0f
1e
0d
0c
1b
0a
0_
1^
1]
1\
0[
0W
0V
1U
1T
0S
0R
0Q
1P
0O
1N
0M
1H
1G
1F
0E
0B
1A
0?
1=
0<
1;
1:
09
08
17
05
04
00
0,
1*
1)
0'
1$
1"
#2700000
b11110000010110101100111110110010001000001101000001110001001111000101000100001011100110010010101101011010010100111110000100110100 C!
b101101000000101010011000000111011100001111110111100000110101110001010110011100000110100001110011010111101000111001100011000011011011001110110111011001101100010000100011001101001100100001011100 D!
0B!
0A!
0@!
1?!
1>!
1=!
0<!
19!
18!
17!
06!
04!
13!
00!
0/!
1.!
1,!
0)!
0(!
1'!
0&!
0%!
1$!
0#!
1"!
0~
1|
0{
0z
0x
0w
0v
0u
1t
1s
0r
0q
1p
0o
0n
0m
1l
1k
0j
0i
0h
0g
1c
0b
1a
1`
0_
0^
0]
0\
0[
1Z
0W
0T
0S
0R
0Q
1P
1O
1M
0H
0G
1D
1C
1B
1A
0@
1>
0=
1<
0:
18
07
06
13
12
10
0.
0-
1,
0)
1'
0&
1%
#2800000
b1010111001111110110110001010101110111110101000010011010011001110100101010101110011100011101011110111100111101001110010100101101 C!
b100001011101100101001101101001010100110110110110010110101000011010000111010001011110001111010000110000100111110110100000101001100000011110101001010011100101000010100001101000110110111010110011 D!
0B!
0A!
1@!
0?!
1>!
0=!
1<!
1;!
0:!
08!
17!
06!
05!
14!
03!
02!
10!
0,!
1+!
1*!
0)!
1(!
1&!
1%!
0$!
1#!
1"!
0!!
0~
1}
1|
1z
0y
1w
1u
0t
0s
1r
1p
1o
1n
0m
0l
0k
0j
1h
1g
0f
0e
0d
0c
1b
0a
0`
1_
1]
1\
0Y
0X
1V
1U
1T
0S
0R
1Q
0O
0N
1M
1L
1K
0J
1I
1F
1E
0B
0A
1@
1=
0<
16
00
0/
1.
1+
1)
0'
1&
1#
0"
1!
#2900000
b11111010001101111010110110011010000010111101011110110000110000111101111001010111100011100011100000000000001111010100100111101000 C!
b111101010110010101010111010000110111011010001010111001111001101101110111001010011100101101000001001010001000000100011100011101001100101101001101011111110110011110001111111000110111000101011000 D!
1B!
0@!
1?!
0>!
0;!
18!
17!
16!
05!
04!
03!
02!
01!
10!
0/!
1.!
0-!
1,!
0+!
0*!
1)!
0(!
0'!
1%!
1$!
0"!
1!!
1~
1}
0|
1{
0w
0t
1s
0r
1q
0p
1o
1n
1m
1l
0j
1i
1g
1f
1d
1c
1b
0a
1_
1^
0]
0\
0Y
0X
1W
0V
1U
0T
0S
0R
0Q
0P
1O
1N
0M
0K
0J
1I
1H
0G
0F
0E
0D
0@
0>
1:
19
06
15
03
01
10
1-
0*
0)
0&
0%
0$
0#
0!
